scope_dump/decoder_corpus/spi/waves/40k/spi_20000000hz_30spc_CH1.csv

#timebase=4000000(ns)
,#voltbase=1000000(mv/100)
#size=40064
5.00000E-09,0.040
1.00000E-08,0.040
1.50000E-08,0.040
2.00000E-08,0.000
2.50000E-08,0.120
3.00000E-08,0.040
3.50000E-08,0.040
4.00000E-08,0.040
4.50000E-08,2.080
5.00000E-08,1.680
5.50000E-08,1.320
6.00000E-08,1.040
6.50000E-08,0.760
7.00000E-08,1.320
7.50000E-08,1.680
8.00000E-08,2.120
8.50000E-08,2.280
9.00000E-08,2.600
9.50000E-08,2.120
1.00000E-07,1.640
1.05000E-07,1.240
1.10000E-07,1.040
1.15000E-07,0.720
1.20000E-07,1.280
1.25000E-07,1.600
1.30000E-07,2.120
1.35000E-07,2.320
1.40000E-07,2.600
1.45000E-07,2.040
1.50000E-07,1.600
1.55000E-07,1.280
1.60000E-07,1.040
1.65000E-07,0.720
1.70000E-07,1.240
1.75000E-07,1.680
1.80000E-07,2.120
1.85000E-07,2.280
1.90000E-07,2.640
1.95000E-07,2.120
2.00000E-07,1.720
2.05000E-07,1.320
2.10000E-07,1.000
2.15000E-07,0.760
2.20000E-07,1.280
2.25000E-07,1.640
2.30000E-07,2.160
2.35000E-07,2.240
2.40000E-07,2.600
2.45000E-07,2.120
2.50000E-07,1.600
2.55000E-07,1.280
2.60000E-07,1.000
2.65000E-07,0.720
2.70000E-07,1.320
2.75000E-07,1.640
2.80000E-07,2.160
2.85000E-07,2.360
2.90000E-07,2.640
2.95000E-07,2.120
3.00000E-07,1.720
3.05000E-07,1.240
3.10000E-07,1.040
3.15000E-07,0.720
3.20000E-07,1.240
3.25000E-07,1.680
3.30000E-07,2.120
3.35000E-07,2.280
3.40000E-07,2.600
3.45000E-07,2.080
3.50000E-07,1.560
3.55000E-07,1.280
3.60000E-07,1.040
3.65000E-07,0.800
3.70000E-07,1.240
3.75000E-07,1.680
3.80000E-07,2.080
3.85000E-07,2.320
3.90000E-07,2.600
3.95000E-07,2.160
4.00000E-07,1.720
4.05000E-07,1.240
4.10000E-07,1.040
4.15000E-07,0.800
4.20000E-07,1.360
4.25000E-07,1.640
4.30000E-07,2.160
4.35000E-07,2.280
4.40000E-07,2.600
4.45000E-07,2.160
4.50000E-07,1.680
4.55000E-07,1.320
4.60000E-07,1.000
4.65000E-07,0.800
4.70000E-07,1.320
4.75000E-07,1.640
4.80000E-07,2.160
4.85000E-07,2.360
4.90000E-07,2.600
4.95000E-07,2.120
5.00000E-07,1.640
5.05000E-07,1.280
5.10000E-07,1.000
5.15000E-07,0.760
5.20000E-07,1.360
5.25000E-07,1.640
5.30000E-07,2.120
5.35000E-07,2.240
5.40000E-07,2.600
5.45000E-07,2.040
5.50000E-07,1.600
5.55000E-07,1.240
5.60000E-07,1.000
5.65000E-07,0.760
5.70000E-07,1.240
5.75000E-07,1.640
5.80000E-07,2.160
5.85000E-07,2.320
5.90000E-07,2.640
5.95000E-07,2.160
6.00000E-07,1.680
6.05000E-07,1.360
6.10000E-07,1.040
6.15000E-07,0.800
6.20000E-07,1.240
6.25000E-07,1.680
6.30000E-07,2.120
6.35000E-07,2.280
6.40000E-07,2.560
6.45000E-07,2.160
6.50000E-07,1.640
6.55000E-07,1.240
6.60000E-07,1.040
6.65000E-07,0.720
6.70000E-07,1.360
6.75000E-07,1.640
6.80000E-07,2.160
6.85000E-07,2.320
6.90000E-07,2.640
6.95000E-07,2.120
7.00000E-07,1.600
7.05000E-07,1.240
7.10000E-07,1.000
7.15000E-07,0.760
7.20000E-07,1.280
7.25000E-07,1.640
7.30000E-07,2.120
7.35000E-07,2.320
7.40000E-07,2.640
7.45000E-07,2.120
7.50000E-07,1.600
7.55000E-07,1.240
7.60000E-07,1.000
7.65000E-07,0.800
7.70000E-07,1.280
7.75000E-07,1.640
7.80000E-07,2.160
7.85000E-07,2.280
7.90000E-07,2.640
7.95000E-07,2.120
8.00000E-07,1.560
8.05000E-07,1.240
8.10000E-07,1.040
8.15000E-07,0.800
8.20000E-07,1.320
8.25000E-07,1.640
8.30000E-07,2.160
8.35000E-07,2.280
8.40000E-07,2.600
8.45000E-07,2.200
8.50000E-07,1.720
8.55000E-07,1.320
8.60000E-07,1.040
8.65000E-07,0.760
8.70000E-07,1.320
8.75000E-07,1.640
8.80000E-07,2.080
8.85000E-07,2.320
8.90000E-07,2.640
8.95000E-07,2.120
9.00000E-07,1.560
9.05000E-07,1.240
9.10000E-07,1.040
9.15000E-07,0.760
9.20000E-07,1.160
9.25000E-07,1.680
9.30000E-07,2.080
9.35000E-07,2.280
9.40000E-07,2.680
9.45000E-07,2.040
9.50000E-07,1.600
9.55000E-07,1.280
9.60000E-07,1.040
9.65000E-07,0.760
9.70000E-07,1.320
9.75000E-07,1.680
9.80000E-07,2.160
9.85000E-07,2.280
9.90000E-07,2.640
9.95000E-07,2.200
1.00000E-06,1.720
1.00500E-06,1.360
1.01000E-06,1.000
1.01500E-06,0.760
1.02000E-06,1.240
1.02500E-06,1.640
1.03000E-06,2.160
1.03500E-06,2.280
1.04000E-06,2.680
1.04500E-06,2.000
1.05000E-06,1.560
1.05500E-06,1.280
1.06000E-06,1.040
1.06500E-06,0.720
1.07000E-06,1.360
1.07500E-06,1.640
1.08000E-06,2.160
1.08500E-06,2.320
1.09000E-06,2.680
1.09500E-06,2.120
1.10000E-06,1.680
1.10500E-06,1.280
1.11000E-06,1.040
1.11500E-06,0.800
1.12000E-06,1.240
1.12500E-06,1.640
1.13000E-06,2.160
1.13500E-06,2.320
1.14000E-06,2.680
1.14500E-06,2.080
1.15000E-06,1.560
1.15500E-06,1.240
1.16000E-06,1.000
1.16500E-06,0.760
1.17000E-06,1.320
1.17500E-06,1.640
1.18000E-06,2.160
1.18500E-06,2.280
1.19000E-06,2.640
1.19500E-06,2.120
1.20000E-06,1.680
1.20500E-06,1.280
1.21000E-06,1.040
1.21500E-06,0.760
1.22000E-06,1.320
1.22500E-06,1.640
1.23000E-06,2.080
1.23500E-06,2.240
1.24000E-06,2.600
1.24500E-06,2.160
1.25000E-06,1.640
1.25500E-06,1.320
1.26000E-06,1.040
1.26500E-06,0.760
1.27000E-06,1.360
1.27500E-06,1.640
1.28000E-06,2.080
1.28500E-06,2.280
1.29000E-06,2.560
1.29500E-06,2.080
1.30000E-06,1.720
1.30500E-06,1.320
1.31000E-06,1.000
1.31500E-06,0.720
1.32000E-06,1.320
1.32500E-06,1.680
1.33000E-06,2.120
1.33500E-06,2.320
1.34000E-06,2.600
1.34500E-06,2.080
1.35000E-06,1.600
1.35500E-06,1.240
1.36000E-06,1.000
1.36500E-06,0.840
1.37000E-06,1.240
1.37500E-06,1.640
1.38000E-06,2.160
1.38500E-06,2.320
1.39000E-06,2.640
1.39500E-06,2.120
1.40000E-06,1.720
1.40500E-06,1.280
1.41000E-06,1.000
1.41500E-06,0.800
1.42000E-06,1.360
1.42500E-06,1.600
1.43000E-06,2.120
1.43500E-06,2.320
1.44000E-06,2.640
1.44500E-06,2.120
1.45000E-06,1.600
1.45500E-06,1.240
1.46000E-06,1.000
1.46500E-06,0.760
1.47000E-06,1.240
1.47500E-06,1.640
1.48000E-06,2.160
1.48500E-06,2.280
1.49000E-06,2.640
1.49500E-06,2.120
1.50000E-06,1.720
1.50500E-06,1.360
1.51000E-06,1.000
1.51500E-06,0.800
1.52000E-06,1.320
1.52500E-06,1.680
1.53000E-06,2.120
1.53500E-06,2.240
1.54000E-06,2.640
1.54500E-06,2.080
1.55000E-06,1.600
1.55500E-06,1.280
1.56000E-06,1.000
1.56500E-06,0.800
1.57000E-06,1.360
1.57500E-06,1.640
1.58000E-06,2.120
1.58500E-06,2.320
1.59000E-06,2.640
1.59500E-06,2.120
1.60000E-06,1.680
1.60500E-06,1.280
1.61000E-06,1.000
1.61500E-06,0.760
1.62000E-06,1.320
1.62500E-06,1.640
1.63000E-06,2.120
1.63500E-06,2.320
1.64000E-06,2.600
1.64500E-06,2.160
1.65000E-06,1.680
1.65500E-06,1.280
1.66000E-06,1.000
1.66500E-06,0.840
1.67000E-06,1.320
1.67500E-06,1.680
1.68000E-06,2.120
1.68500E-06,2.280
1.69000E-06,2.600
1.69500E-06,2.120
1.70000E-06,1.560
1.70500E-06,1.280
1.71000E-06,1.040
1.71500E-06,0.720
1.72000E-06,1.320
1.72500E-06,1.600
1.73000E-06,2.120
1.73500E-06,2.320
1.74000E-06,2.640
1.74500E-06,2.080
1.75000E-06,1.560
1.75500E-06,1.240
1.76000E-06,1.000
1.76500E-06,0.760
1.77000E-06,1.280
1.77500E-06,1.680
1.78000E-06,2.120
1.78500E-06,2.360
1.79000E-06,2.640
1.79500E-06,2.120
1.80000E-06,1.680
1.80500E-06,1.320
1.81000E-06,1.040
1.81500E-06,0.760
1.82000E-06,1.360
1.82500E-06,1.600
1.83000E-06,2.120
1.83500E-06,2.320
1.84000E-06,2.600
1.84500E-06,2.120
1.85000E-06,1.680
1.85500E-06,1.360
1.86000E-06,1.040
1.86500E-06,0.760
1.87000E-06,1.240
1.87500E-06,1.640
1.88000E-06,2.160
1.88500E-06,2.280
1.89000E-06,2.600
1.89500E-06,2.080
1.90000E-06,1.640
1.90500E-06,1.280
1.91000E-06,1.000
1.91500E-06,0.760
1.92000E-06,1.240
1.92500E-06,1.640
1.93000E-06,2.120
1.93500E-06,2.280
1.94000E-06,2.640
1.94500E-06,2.040
1.95000E-06,1.640
1.95500E-06,1.280
1.96000E-06,1.000
1.96500E-06,0.680
1.97000E-06,1.240
1.97500E-06,1.640
1.98000E-06,2.160
1.98500E-06,2.360
1.99000E-06,2.640
1.99500E-06,2.120
2.00000E-06,1.640
2.00500E-06,1.280
2.01000E-06,1.000
2.01500E-06,0.840
2.02000E-06,1.320
2.02500E-06,1.640
2.03000E-06,2.080
2.03500E-06,2.320
2.04000E-06,2.600
2.04500E-06,2.200
2.05000E-06,1.680
2.05500E-06,1.320
2.06000E-06,1.000
2.06500E-06,0.760
2.07000E-06,1.320
2.07500E-06,1.640
2.08000E-06,2.120
2.08500E-06,2.280
2.09000E-06,2.600
2.09500E-06,2.120
2.10000E-06,1.600
2.10500E-06,1.240
2.11000E-06,1.000
2.11500E-06,0.760
2.12000E-06,1.280
2.12500E-06,1.600
2.13000E-06,2.160
2.13500E-06,2.280
2.14000E-06,2.600
2.14500E-06,2.040
2.15000E-06,1.600
2.15500E-06,1.280
2.16000E-06,1.040
2.16500E-06,0.720
2.17000E-06,1.240
2.17500E-06,1.680
2.18000E-06,2.120
2.18500E-06,2.280
2.19000E-06,2.600
2.19500E-06,2.160
2.20000E-06,1.680
2.20500E-06,1.320
2.21000E-06,1.040
2.21500E-06,0.800
2.22000E-06,1.320
2.22500E-06,1.640
2.23000E-06,2.120
2.23500E-06,2.400
2.24000E-06,2.640
2.24500E-06,2.240
2.25000E-06,1.680
2.25500E-06,1.320
2.26000E-06,1.000
2.26500E-06,0.720
2.27000E-06,1.280
2.27500E-06,1.640
2.28000E-06,2.080
2.28500E-06,2.240
2.29000E-06,2.600
2.29500E-06,2.040
2.30000E-06,1.600
2.30500E-06,1.280
2.31000E-06,1.040
2.31500E-06,0.720
2.32000E-06,1.360
2.32500E-06,1.640
2.33000E-06,2.120
2.33500E-06,2.320
2.34000E-06,2.640
2.34500E-06,2.160
2.35000E-06,1.640
2.35500E-06,1.280
2.36000E-06,1.040
2.36500E-06,0.800
2.37000E-06,1.320
2.37500E-06,1.640
2.38000E-06,2.120
2.38500E-06,2.280
2.39000E-06,2.600
2.39500E-06,2.120
2.40000E-06,1.680
2.40500E-06,1.280
2.41000E-06,1.000
2.41500E-06,0.800
2.42000E-06,1.360
2.42500E-06,1.640
2.43000E-06,2.160
2.43500E-06,2.280
2.44000E-06,2.600
2.44500E-06,2.160
2.45000E-06,1.720
2.45500E-06,1.320
2.46000E-06,1.000
2.46500E-06,0.720
2.47000E-06,1.240
2.47500E-06,1.680
2.48000E-06,2.160
2.48500E-06,2.280
2.49000E-06,2.640
2.49500E-06,2.120
2.50000E-06,1.640
2.50500E-06,1.280
2.51000E-06,1.000
2.51500E-06,0.760
2.52000E-06,1.240
2.52500E-06,1.600
2.53000E-06,2.080
2.53500E-06,2.280
2.54000E-06,2.640
2.54500E-06,2.040
2.55000E-06,1.600
2.55500E-06,1.240
2.56000E-06,1.000
2.56500E-06,0.760
2.57000E-06,1.280
2.57500E-06,1.640
2.58000E-06,2.160
2.58500E-06,2.280
2.59000E-06,2.640
2.59500E-06,2.120
2.60000E-06,1.680
2.60500E-06,1.320
2.61000E-06,1.040
2.61500E-06,0.800
2.62000E-06,1.320
2.62500E-06,1.640
2.63000E-06,2.120
2.63500E-06,2.280
2.64000E-06,2.600
2.64500E-06,2.080
2.65000E-06,1.720
2.65500E-06,1.280
2.66000E-06,1.000
2.66500E-06,0.800
2.67000E-06,1.280
2.67500E-06,1.680
2.68000E-06,2.120
2.68500E-06,2.360
2.69000E-06,2.680
2.69500E-06,2.120
2.70000E-06,1.680
2.70500E-06,1.320
2.71000E-06,1.040
2.71500E-06,0.800
2.72000E-06,1.240
2.72500E-06,1.640
2.73000E-06,2.080
2.73500E-06,2.280
2.74000E-06,2.560
2.74500E-06,2.080
2.75000E-06,1.600
2.75500E-06,1.240
2.76000E-06,1.040
2.76500E-06,0.760
2.77000E-06,1.360
2.77500E-06,1.680
2.78000E-06,2.120
2.78500E-06,2.320
2.79000E-06,2.640
2.79500E-06,2.160
2.80000E-06,1.680
2.80500E-06,1.320
2.81000E-06,1.000
2.81500E-06,0.760
2.82000E-06,1.240
2.82500E-06,1.680
2.83000E-06,2.120
2.83500E-06,2.280
2.84000E-06,2.600
2.84500E-06,2.160
2.85000E-06,1.720
2.85500E-06,1.320
2.86000E-06,1.000
2.86500E-06,0.760
2.87000E-06,1.320
2.87500E-06,1.680
2.88000E-06,2.120
2.88500E-06,2.280
2.89000E-06,2.560
2.89500E-06,2.120
2.90000E-06,1.600
2.90500E-06,1.280
2.91000E-06,1.040
2.91500E-06,0.720
2.92000E-06,1.280
2.92500E-06,1.640
2.93000E-06,2.120
2.93500E-06,2.320
2.94000E-06,2.600
2.94500E-06,2.080
2.95000E-06,1.640
2.95500E-06,1.280
2.96000E-06,1.000
2.96500E-06,0.800
2.97000E-06,1.240
2.97500E-06,1.680
2.98000E-06,2.120
2.98500E-06,2.280
2.99000E-06,2.640
2.99500E-06,2.160
3.00000E-06,1.640
3.00500E-06,1.320
3.01000E-06,1.040
3.01500E-06,0.800
3.02000E-06,1.280
3.02500E-06,1.640
3.03000E-06,2.160
3.03500E-06,2.320
3.04000E-06,2.600
3.04500E-06,2.120
3.05000E-06,1.600
3.05500E-06,1.360
3.06000E-06,1.040
3.06500E-06,0.760
3.07000E-06,1.320
3.07500E-06,1.640
3.08000E-06,2.160
3.08500E-06,2.360
3.09000E-06,2.640
3.09500E-06,2.040
3.10000E-06,1.600
3.10500E-06,1.280
3.11000E-06,1.000
3.11500E-06,0.760
3.12000E-06,1.320
3.12500E-06,1.680
3.13000E-06,2.120
3.13500E-06,2.280
3.14000E-06,2.640
3.14500E-06,2.120
3.15000E-06,1.720
3.15500E-06,1.280
3.16000E-06,1.000
3.16500E-06,0.720
3.17000E-06,1.240
3.17500E-06,1.640
3.18000E-06,2.120
3.18500E-06,2.320
3.19000E-06,2.600
3.19500E-06,2.080
3.20000E-06,1.600
3.20500E-06,1.320
3.21000E-06,1.000
3.21500E-06,0.760
3.22000E-06,1.320
3.22500E-06,1.600
3.23000E-06,2.080
3.23500E-06,2.280
3.24000E-06,2.600
3.24500E-06,2.120
3.25000E-06,1.680
3.25500E-06,1.320
3.26000E-06,1.000
3.26500E-06,0.760
3.27000E-06,1.320
3.27500E-06,1.600
3.28000E-06,2.080
3.28500E-06,2.280
3.29000E-06,2.600
3.29500E-06,2.000
3.30000E-06,1.600
3.30500E-06,1.240
3.31000E-06,1.000
3.31500E-06,0.760
3.32000E-06,1.280
3.32500E-06,1.640
3.33000E-06,2.160
3.33500E-06,2.280
3.34000E-06,2.640
3.34500E-06,2.160
3.35000E-06,1.720
3.35500E-06,1.320
3.36000E-06,1.000
3.36500E-06,0.800
3.37000E-06,1.280
3.37500E-06,1.640
3.38000E-06,2.120
3.38500E-06,2.320
3.39000E-06,2.600
3.39500E-06,2.160
3.40000E-06,1.600
3.40500E-06,1.320
3.41000E-06,1.000
3.41500E-06,0.760
3.42000E-06,1.240
3.42500E-06,1.680
3.43000E-06,2.120
3.43500E-06,2.320
3.44000E-06,2.640
3.44500E-06,2.080
3.45000E-06,1.600
3.45500E-06,1.320
3.46000E-06,1.000
3.46500E-06,0.760
3.47000E-06,1.240
3.47500E-06,1.640
3.48000E-06,2.160
3.48500E-06,2.280
3.49000E-06,2.680
3.49500E-06,2.160
3.50000E-06,1.680
3.50500E-06,1.240
3.51000E-06,1.000
3.51500E-06,0.760
3.52000E-06,1.240
3.52500E-06,1.640
3.53000E-06,2.160
3.53500E-06,2.320
3.54000E-06,2.640
3.54500E-06,2.040
3.55000E-06,1.600
3.55500E-06,1.280
3.56000E-06,1.000
3.56500E-06,0.800
3.57000E-06,1.280
3.57500E-06,1.680
3.58000E-06,2.080
3.58500E-06,2.360
3.59000E-06,2.600
3.59500E-06,2.120
3.60000E-06,1.680
3.60500E-06,1.280
3.61000E-06,1.040
3.61500E-06,0.760
3.62000E-06,1.320
3.62500E-06,1.680
3.63000E-06,2.120
3.63500E-06,2.320
3.64000E-06,2.560
3.64500E-06,2.200
3.65000E-06,1.680
3.65500E-06,1.280
3.66000E-06,1.000
3.66500E-06,0.760
3.67000E-06,1.320
3.67500E-06,1.640
3.68000E-06,2.160
3.68500E-06,2.240
3.69000E-06,2.600
3.69500E-06,2.080
3.70000E-06,1.600
3.70500E-06,1.240
3.71000E-06,1.040
3.71500E-06,0.760
3.72000E-06,1.280
3.72500E-06,1.600
3.73000E-06,2.120
3.73500E-06,2.320
3.74000E-06,2.640
3.74500E-06,2.160
3.75000E-06,1.680
3.75500E-06,1.320
3.76000E-06,1.040
3.76500E-06,0.800
3.77000E-06,1.240
3.77500E-06,1.640
3.78000E-06,2.160
3.78500E-06,2.280
3.79000E-06,2.640
3.79500E-06,2.080
3.80000E-06,1.600
3.80500E-06,1.320
3.81000E-06,1.040
3.81500E-06,0.760
3.82000E-06,1.320
3.82500E-06,1.640
3.83000E-06,2.120
3.83500E-06,2.280
3.84000E-06,2.600
3.84500E-06,2.120
3.85000E-06,1.680
3.85500E-06,1.240
3.86000E-06,1.040
3.86500E-06,0.800
3.87000E-06,1.240
3.87500E-06,1.680
3.88000E-06,2.120
3.88500E-06,2.320
3.89000E-06,2.600
3.89500E-06,2.080
3.90000E-06,1.600
3.90500E-06,1.280
3.91000E-06,1.040
3.91500E-06,0.760
3.92000E-06,1.240
3.92500E-06,1.600
3.93000E-06,2.080
3.93500E-06,2.320
3.94000E-06,2.640
3.94500E-06,2.080
3.95000E-06,1.680
3.95500E-06,1.320
3.96000E-06,1.000
3.96500E-06,0.760
3.97000E-06,1.360
3.97500E-06,1.680
3.98000E-06,2.080
3.98500E-06,2.320
3.99000E-06,2.640
3.99500E-06,2.120
4.00000E-06,1.600
4.00500E-06,1.240
4.01000E-06,1.040
4.01500E-06,0.760
4.02000E-06,1.240
4.02500E-06,1.640
4.03000E-06,2.200
4.03500E-06,2.400
4.04000E-06,2.600
4.04500E-06,2.120
4.05000E-06,1.680
4.05500E-06,1.320
4.06000E-06,1.000
4.06500E-06,0.800
4.07000E-06,1.240
4.07500E-06,1.640
4.08000E-06,2.160
4.08500E-06,2.280
4.09000E-06,2.600
4.09500E-06,2.040
4.10000E-06,1.640
4.10500E-06,1.240
4.11000E-06,1.040
4.11500E-06,0.760
4.12000E-06,1.240
4.12500E-06,1.640
4.13000E-06,2.160
4.13500E-06,2.320
4.14000E-06,2.600
4.14500E-06,2.160
4.15000E-06,1.760
4.15500E-06,1.360
4.16000E-06,1.000
4.16500E-06,0.760
4.17000E-06,1.240
4.17500E-06,1.680
4.18000E-06,2.120
4.18500E-06,2.320
4.19000E-06,2.600
4.19500E-06,2.160
4.20000E-06,1.600
4.20500E-06,1.240
4.21000E-06,1.000
4.21500E-06,0.760
4.22000E-06,1.320
4.22500E-06,1.680
4.23000E-06,2.120
4.23500E-06,2.320
4.24000E-06,2.560
4.24500E-06,2.120
4.25000E-06,1.600
4.25500E-06,1.240
4.26000E-06,1.040
4.26500E-06,0.800
4.27000E-06,1.320
4.27500E-06,1.640
4.28000E-06,2.120
4.28500E-06,2.280
4.29000E-06,2.640
4.29500E-06,2.160
4.30000E-06,1.640
4.30500E-06,1.320
4.31000E-06,1.040
4.31500E-06,0.760
4.32000E-06,1.320
4.32500E-06,1.680
4.33000E-06,2.080
4.33500E-06,2.240
4.34000E-06,2.640
4.34500E-06,2.120
4.35000E-06,1.560
4.35500E-06,1.240
4.36000E-06,1.040
4.36500E-06,0.800
4.37000E-06,1.240
4.37500E-06,1.640
4.38000E-06,2.120
4.38500E-06,2.280
4.39000E-06,2.600
4.39500E-06,2.120
4.40000E-06,1.640
4.40500E-06,1.320
4.41000E-06,1.000
4.41500E-06,0.760
4.42000E-06,1.280
4.42500E-06,1.640
4.43000E-06,2.120
4.43500E-06,2.280
4.44000E-06,2.640
4.44500E-06,2.240
4.45000E-06,1.680
4.45500E-06,1.320
4.46000E-06,1.040
4.46500E-06,0.760
4.47000E-06,1.320
4.47500E-06,1.640
4.48000E-06,2.080
4.48500E-06,2.320
4.49000E-06,2.600
4.49500E-06,2.120
4.50000E-06,1.600
4.50500E-06,1.200
4.51000E-06,1.040
4.51500E-06,0.800
4.52000E-06,1.240
4.52500E-06,1.600
4.53000E-06,2.080
4.53500E-06,2.320
4.54000E-06,2.680
4.54500E-06,2.160
4.55000E-06,1.680
4.55500E-06,1.320
4.56000E-06,1.000
4.56500E-06,0.800
4.57000E-06,1.320
4.57500E-06,1.640
4.58000E-06,2.120
4.58500E-06,2.280
4.59000E-06,2.640
4.59500E-06,2.160
4.60000E-06,1.560
4.60500E-06,1.240
4.61000E-06,1.040
4.61500E-06,0.760
4.62000E-06,1.320
4.62500E-06,1.680
4.63000E-06,2.080
4.63500E-06,2.280
4.64000E-06,2.600
4.64500E-06,2.080
4.65000E-06,1.600
4.65500E-06,1.280
4.66000E-06,1.040
4.66500E-06,0.800
4.67000E-06,1.320
4.67500E-06,1.640
4.68000E-06,2.160
4.68500E-06,2.320
4.69000E-06,2.640
4.69500E-06,2.160
4.70000E-06,1.680
4.70500E-06,1.280
4.71000E-06,1.000
4.71500E-06,0.760
4.72000E-06,1.320
4.72500E-06,1.640
4.73000E-06,2.080
4.73500E-06,2.320
4.74000E-06,2.600
4.74500E-06,2.160
4.75000E-06,1.680
4.75500E-06,1.280
4.76000E-06,1.000
4.76500E-06,0.800
4.77000E-06,1.360
4.77500E-06,1.720
4.78000E-06,2.080
4.78500E-06,2.320
4.79000E-06,2.600
4.79500E-06,2.120
4.80000E-06,1.560
4.80500E-06,1.280
4.81000E-06,1.000
4.81500E-06,0.760
4.82000E-06,1.240
4.82500E-06,1.680
4.83000E-06,2.120
4.83500E-06,2.360
4.84000E-06,2.680
4.84500E-06,2.120
4.85000E-06,1.680
4.85500E-06,1.360
4.86000E-06,1.000
4.86500E-06,0.760
4.87000E-06,1.240
4.87500E-06,1.640
4.88000E-06,2.160
4.88500E-06,2.360
4.89000E-06,2.600
4.89500E-06,2.000
4.90000E-06,1.640
4.90500E-06,1.240
4.91000E-06,1.040
4.91500E-06,0.760
4.92000E-06,1.240
4.92500E-06,1.640
4.93000E-06,2.120
4.93500E-06,2.320
4.94000E-06,2.600
4.94500E-06,2.200
4.95000E-06,1.720
4.95500E-06,1.320
4.96000E-06,1.000
4.96500E-06,0.800
4.97000E-06,1.280
4.97500E-06,1.600
4.98000E-06,2.080
4.98500E-06,2.280
4.99000E-06,2.600
4.99500E-06,2.080
5.00000E-06,1.600
5.00500E-06,1.280
5.01000E-06,1.000
5.01500E-06,0.720
5.02000E-06,1.320
5.02500E-06,1.600
5.03000E-06,2.080
5.03500E-06,2.280
5.04000E-06,2.640
5.04500E-06,2.120
5.05000E-06,1.760
5.05500E-06,1.360
5.06000E-06,1.000
5.06500E-06,0.800
5.07000E-06,1.280
5.07500E-06,1.680
5.08000E-06,2.160
5.08500E-06,2.240
5.09000E-06,2.600
5.09500E-06,2.080
5.10000E-06,1.600
5.10500E-06,1.320
5.11000E-06,1.000
5.11500E-06,0.800
5.12000E-06,1.320
5.12500E-06,1.680
5.13000E-06,2.120
5.13500E-06,2.320
5.14000E-06,2.600
5.14500E-06,2.040
5.15000E-06,1.600
5.15500E-06,1.280
5.16000E-06,1.040
5.16500E-06,0.760
5.17000E-06,1.240
5.17500E-06,1.680
5.18000E-06,2.120
5.18500E-06,2.320
5.19000E-06,2.680
5.19500E-06,2.080
5.20000E-06,1.680
5.20500E-06,1.320
5.21000E-06,1.000
5.21500E-06,0.800
5.22000E-06,1.360
5.22500E-06,1.640
5.23000E-06,2.160
5.23500E-06,2.240
5.24000E-06,2.600
5.24500E-06,2.160
5.25000E-06,1.720
5.25500E-06,1.320
5.26000E-06,1.040
5.26500E-06,0.760
5.27000E-06,1.360
5.27500E-06,1.640
5.28000E-06,2.120
5.28500E-06,2.280
5.29000E-06,2.600
5.29500E-06,2.040
5.30000E-06,1.600
5.30500E-06,1.240
5.31000E-06,0.960
5.31500E-06,0.760
5.32000E-06,1.320
5.32500E-06,1.640
5.33000E-06,2.120
5.33500E-06,2.320
5.34000E-06,2.600
5.34500E-06,2.160
5.35000E-06,1.680
5.35500E-06,1.360
5.36000E-06,1.040
5.36500E-06,0.840
5.37000E-06,1.280
5.37500E-06,1.640
5.38000E-06,2.160
5.38500E-06,2.240
5.39000E-06,2.600
5.39500E-06,2.080
5.40000E-06,1.560
5.40500E-06,1.240
5.41000E-06,1.040
5.41500E-06,0.800
5.42000E-06,1.320
5.42500E-06,1.680
5.43000E-06,2.080
5.43500E-06,2.280
5.44000E-06,2.640
5.44500E-06,2.080
5.45000E-06,1.720
5.45500E-06,1.280
5.46000E-06,1.000
5.46500E-06,0.800
5.47000E-06,1.240
5.47500E-06,1.640
5.48000E-06,2.160
5.48500E-06,2.240
5.49000E-06,2.600
5.49500E-06,2.080
5.50000E-06,1.560
5.50500E-06,1.240
5.51000E-06,1.000
5.51500E-06,0.760
5.52000E-06,1.280
5.52500E-06,1.640
5.53000E-06,2.160
5.53500E-06,2.280
