scope_dump/decoder_corpus/spi/waves/40k/spi_10000hz_100spc_CH1.csv

#timebase=2000000000(ns)
,#voltbase=1000000(mv/100)
#size=40064
1.00000E-06,-0.040
2.00000E-06,-0.040
3.00000E-06,-0.040
4.00000E-06,-0.040
5.00000E-06,-0.080
6.00000E-06,-0.040
7.00000E-06,-0.040
8.00000E-06,-0.040
9.00000E-06,-0.080
1.00000E-05,-0.080
1.10000E-05,-0.040
1.20000E-05,-0.040
1.30000E-05,-0.080
1.40000E-05,-0.080
1.50000E-05,-0.080
1.60000E-05,-0.080
1.70000E-05,-0.080
1.80000E-05,-0.080
1.90000E-05,-0.080
2.00000E-05,-0.120
2.10000E-05,-0.080
2.20000E-05,-0.080
2.30000E-05,-0.080
2.40000E-05,-0.040
2.50000E-05,-0.040
2.60000E-05,-0.040
2.70000E-05,-0.040
2.80000E-05,-0.080
2.90000E-05,-0.080
3.00000E-05,-0.120
3.10000E-05,-0.080
3.20000E-05,-0.080
3.30000E-05,-0.080
3.40000E-05,-0.080
3.50000E-05,-0.080
3.60000E-05,-0.040
3.70000E-05,-0.080
3.80000E-05,-0.080
3.90000E-05,-0.080
4.00000E-05,-0.040
4.10000E-05,-0.080
4.20000E-05,-0.040
4.30000E-05,-0.040
4.40000E-05,-0.040
4.50000E-05,-0.040
4.60000E-05,0.000
4.70000E-05,-0.080
4.80000E-05,-0.040
4.90000E-05,-0.080
5.00000E-05,-0.080
5.10000E-05,-0.080
5.20000E-05,3.280
5.30000E-05,3.200
5.40000E-05,3.240
5.50000E-05,3.320
5.60000E-05,3.360
5.70000E-05,3.360
5.80000E-05,3.360
5.90000E-05,3.320
6.00000E-05,3.320
6.10000E-05,3.360
6.20000E-05,3.360
6.30000E-05,3.320
6.40000E-05,3.360
6.50000E-05,3.320
6.60000E-05,3.320
6.70000E-05,3.360
6.80000E-05,3.320
6.90000E-05,3.360
7.00000E-05,3.320
7.10000E-05,-0.080
7.20000E-05,-0.040
7.30000E-05,-0.080
7.40000E-05,-0.080
7.50000E-05,-0.080
7.60000E-05,-0.080
7.70000E-05,-0.080
7.80000E-05,-0.080
7.90000E-05,-0.080
8.00000E-05,-0.120
8.10000E-05,-0.080
8.20000E-05,-0.160
8.30000E-05,-0.120
8.40000E-05,-0.080
8.50000E-05,-0.080
8.60000E-05,-0.040
8.70000E-05,-0.080
8.80000E-05,-0.120
8.90000E-05,-0.120
9.00000E-05,-0.080
9.10000E-05,-0.080
9.20000E-05,-0.080
9.30000E-05,-0.040
9.40000E-05,-0.080
9.50000E-05,-0.080
9.60000E-05,-0.080
9.70000E-05,-0.120
9.80000E-05,-0.080
9.90000E-05,-0.120
1.00000E-04,-0.080
1.01000E-04,-0.120
1.02000E-04,-0.120
1.03000E-04,-0.120
1.04000E-04,3.320
1.05000E-04,3.280
1.06000E-04,3.320
1.07000E-04,3.280
1.08000E-04,3.360
1.09000E-04,3.320
1.10000E-04,3.360
1.11000E-04,3.320
1.12000E-04,3.320
1.13000E-04,3.320
1.14000E-04,3.320
1.15000E-04,3.360
1.16000E-04,3.360
1.17000E-04,3.320
1.18000E-04,3.360
1.19000E-04,3.360
1.20000E-04,3.320
1.21000E-04,3.320
1.22000E-04,3.320
1.23000E-04,3.320
1.24000E-04,3.320
1.25000E-04,3.320
1.26000E-04,3.320
1.27000E-04,3.320
1.28000E-04,3.320
1.29000E-04,3.320
1.30000E-04,3.360
1.31000E-04,3.360
1.32000E-04,3.320
1.33000E-04,3.360
1.34000E-04,3.360
1.35000E-04,3.320
1.36000E-04,3.320
1.37000E-04,3.360
1.38000E-04,3.320
1.39000E-04,3.320
1.40000E-04,3.320
1.41000E-04,3.320
1.42000E-04,3.280
1.43000E-04,3.360
1.44000E-04,3.320
1.45000E-04,3.280
1.46000E-04,3.320
1.47000E-04,3.360
1.48000E-04,3.320
1.49000E-04,3.320
1.50000E-04,3.360
1.51000E-04,3.320
1.52000E-04,3.360
1.53000E-04,3.320
1.54000E-04,-0.040
1.55000E-04,0.000
1.56000E-04,-0.080
1.57000E-04,-0.080
1.58000E-04,-0.120
1.59000E-04,-0.080
1.60000E-04,-0.080
1.61000E-04,-0.040
1.62000E-04,-0.080
1.63000E-04,-0.120
1.64000E-04,-0.120
1.65000E-04,-0.080
1.66000E-04,-0.080
1.67000E-04,-0.080
1.68000E-04,-0.080
1.69000E-04,-0.080
1.70000E-04,-0.080
1.71000E-04,-0.120
1.72000E-04,-0.120
1.73000E-04,-0.080
1.74000E-04,-0.040
1.75000E-04,-0.080
1.76000E-04,-0.080
1.77000E-04,-0.120
1.78000E-04,-0.040
1.79000E-04,-0.120
1.80000E-04,-0.120
1.81000E-04,-0.080
1.82000E-04,-0.040
1.83000E-04,-0.040
1.84000E-04,-0.040
1.85000E-04,-0.040
1.86000E-04,-0.080
1.87000E-04,-0.080
1.88000E-04,-0.040
1.89000E-04,-0.040
1.90000E-04,-0.080
1.91000E-04,-0.080
1.92000E-04,-0.080
1.93000E-04,-0.120
1.94000E-04,-0.120
1.95000E-04,-0.080
1.96000E-04,-0.120
1.97000E-04,-0.080
1.98000E-04,-0.080
1.99000E-04,-0.080
2.00000E-04,-0.080
2.01000E-04,-0.120
2.02000E-04,-0.120
2.03000E-04,-0.160
2.04000E-04,3.240
2.05000E-04,3.360
2.06000E-04,3.320
2.07000E-04,3.360
2.08000E-04,3.360
2.09000E-04,3.360
2.10000E-04,3.360
2.11000E-04,3.320
2.12000E-04,3.320
2.13000E-04,3.320
2.14000E-04,3.320
2.15000E-04,3.360
2.16000E-04,3.320
2.17000E-04,3.320
2.18000E-04,3.320
2.19000E-04,3.320
2.20000E-04,3.360
2.21000E-04,3.320
2.22000E-04,3.360
2.23000E-04,3.320
2.24000E-04,3.320
2.25000E-04,3.360
2.26000E-04,3.360
2.27000E-04,3.360
2.28000E-04,3.320
2.29000E-04,3.280
2.30000E-04,3.360
2.31000E-04,3.280
2.32000E-04,3.320
2.33000E-04,3.320
2.34000E-04,3.320
2.35000E-04,3.360
2.36000E-04,3.360
2.37000E-04,3.360
2.38000E-04,3.320
2.39000E-04,3.360
2.40000E-04,3.360
2.41000E-04,3.360
2.42000E-04,3.320
2.43000E-04,3.360
2.44000E-04,3.360
2.45000E-04,3.320
2.46000E-04,3.320
2.47000E-04,3.320
2.48000E-04,3.320
2.49000E-04,3.360
2.50000E-04,3.360
2.51000E-04,3.320
2.52000E-04,3.320
2.53000E-04,3.360
2.54000E-04,0.040
2.55000E-04,0.080
2.56000E-04,-0.040
2.57000E-04,-0.080
2.58000E-04,-0.040
2.59000E-04,-0.080
2.60000E-04,-0.080
2.61000E-04,-0.080
2.62000E-04,-0.120
2.63000E-04,-0.080
2.64000E-04,-0.080
2.65000E-04,0.000
2.66000E-04,-0.080
2.67000E-04,-0.080
2.68000E-04,-0.040
2.69000E-04,-0.080
2.70000E-04,-0.080
2.71000E-04,-0.040
2.72000E-04,-0.080
2.73000E-04,-0.040
2.74000E-04,-0.080
2.75000E-04,-0.080
2.76000E-04,-0.080
2.77000E-04,-0.080
2.78000E-04,-0.080
2.79000E-04,-0.080
2.80000E-04,-0.040
2.81000E-04,-0.120
2.82000E-04,-0.120
2.83000E-04,-0.120
2.84000E-04,-0.080
2.85000E-04,-0.040
2.86000E-04,-0.040
2.87000E-04,-0.040
2.88000E-04,-0.080
2.89000E-04,-0.080
2.90000E-04,-0.120
2.91000E-04,-0.040
2.92000E-04,-0.080
2.93000E-04,-0.080
2.94000E-04,-0.040
2.95000E-04,-0.080
2.96000E-04,-0.080
2.97000E-04,-0.080
2.98000E-04,-0.080
2.99000E-04,-0.120
3.00000E-04,-0.080
3.01000E-04,-0.080
3.02000E-04,-0.160
3.03000E-04,-0.080
3.04000E-04,3.240
3.05000E-04,3.320
3.06000E-04,3.320
3.07000E-04,3.360
3.08000E-04,3.320
3.09000E-04,3.360
3.10000E-04,3.320
3.11000E-04,3.320
3.12000E-04,3.360
3.13000E-04,3.360
3.14000E-04,3.320
3.15000E-04,3.360
3.16000E-04,3.360
3.17000E-04,3.320
3.18000E-04,3.320
3.19000E-04,3.360
3.20000E-04,3.320
3.21000E-04,3.360
3.22000E-04,3.360
3.23000E-04,3.320
3.24000E-04,3.360
3.25000E-04,3.360
3.26000E-04,3.360
3.27000E-04,3.320
3.28000E-04,3.360
3.29000E-04,3.320
3.30000E-04,3.360
3.31000E-04,3.320
3.32000E-04,3.320
3.33000E-04,3.320
3.34000E-04,3.360
3.35000E-04,3.360
3.36000E-04,3.360
3.37000E-04,3.320
3.38000E-04,3.360
3.39000E-04,3.320
3.40000E-04,3.320
3.41000E-04,3.360
3.42000E-04,3.320
3.43000E-04,3.320
3.44000E-04,3.320
3.45000E-04,3.320
3.46000E-04,3.320
3.47000E-04,3.320
3.48000E-04,3.360
3.49000E-04,3.320
3.50000E-04,3.320
3.51000E-04,3.320
3.52000E-04,3.320
3.53000E-04,3.320
3.54000E-04,0.000
3.55000E-04,-0.080
3.56000E-04,0.000
3.57000E-04,-0.040
3.58000E-04,-0.120
3.59000E-04,-0.080
3.60000E-04,-0.040
3.61000E-04,-0.080
3.62000E-04,-0.080
3.63000E-04,-0.040
3.64000E-04,-0.040
3.65000E-04,-0.040
3.66000E-04,-0.040
3.67000E-04,0.000
3.68000E-04,-0.040
3.69000E-04,-0.040
3.70000E-04,-0.080
3.71000E-04,-0.040
3.72000E-04,-0.040
3.73000E-04,-0.080
3.74000E-04,-0.080
3.75000E-04,-0.080
3.76000E-04,-0.080
3.77000E-04,-0.080
3.78000E-04,-0.080
3.79000E-04,-0.040
3.80000E-04,-0.040
3.81000E-04,-0.080
3.82000E-04,-0.080
3.83000E-04,-0.120
3.84000E-04,-0.080
3.85000E-04,-0.080
3.86000E-04,-0.040
3.87000E-04,-0.080
3.88000E-04,-0.080
3.89000E-04,0.040
3.90000E-04,-0.080
3.91000E-04,-0.080
3.92000E-04,-0.040
3.93000E-04,-0.080
3.94000E-04,-0.080
3.95000E-04,-0.040
3.96000E-04,-0.040
3.97000E-04,-0.080
3.98000E-04,-0.080
3.99000E-04,-0.040
4.00000E-04,-0.040
4.01000E-04,-0.040
4.02000E-04,-0.080
4.03000E-04,-0.080
4.04000E-04,3.320
4.05000E-04,3.360
4.06000E-04,3.360
4.07000E-04,3.320
4.08000E-04,3.280
4.09000E-04,3.320
4.10000E-04,3.320
4.11000E-04,3.360
4.12000E-04,3.360
4.13000E-04,3.360
4.14000E-04,3.320
4.15000E-04,3.360
4.16000E-04,3.320
4.17000E-04,3.360
4.18000E-04,3.320
4.19000E-04,3.320
4.20000E-04,3.320
4.21000E-04,3.320
4.22000E-04,3.320
4.23000E-04,3.320
4.24000E-04,3.320
4.25000E-04,3.320
4.26000E-04,3.320
4.27000E-04,3.320
4.28000E-04,3.320
4.29000E-04,3.360
4.30000E-04,3.360
4.31000E-04,3.360
4.32000E-04,3.360
4.33000E-04,3.360
4.34000E-04,3.320
4.35000E-04,3.320
4.36000E-04,3.280
4.37000E-04,3.320
4.38000E-04,3.360
4.39000E-04,3.360
4.40000E-04,3.360
4.41000E-04,3.320
4.42000E-04,3.360
4.43000E-04,3.360
4.44000E-04,3.360
4.45000E-04,3.360
4.46000E-04,3.360
4.47000E-04,3.320
4.48000E-04,3.360
4.49000E-04,3.320
4.50000E-04,3.360
4.51000E-04,3.320
4.52000E-04,3.360
4.53000E-04,3.320
4.54000E-04,0.040
4.55000E-04,0.040
4.56000E-04,-0.040
4.57000E-04,-0.040
4.58000E-04,-0.080
4.59000E-04,-0.040
4.60000E-04,-0.040
4.61000E-04,-0.080
4.62000E-04,-0.040
4.63000E-04,-0.080
4.64000E-04,-0.080
4.65000E-04,-0.080
4.66000E-04,-0.080
4.67000E-04,-0.080
4.68000E-04,-0.080
4.69000E-04,-0.160
4.70000E-04,-0.080
4.71000E-04,-0.080
4.72000E-04,-0.040
4.73000E-04,0.000
4.74000E-04,-0.120
4.75000E-04,-0.120
4.76000E-04,-0.080
4.77000E-04,-0.080
4.78000E-04,-0.080
4.79000E-04,-0.080
4.80000E-04,-0.120
4.81000E-04,-0.080
4.82000E-04,-0.080
4.83000E-04,-0.080
4.84000E-04,-0.040
4.85000E-04,-0.080
4.86000E-04,-0.080
4.87000E-04,-0.080
4.88000E-04,-0.120
4.89000E-04,-0.040
4.90000E-04,-0.080
4.91000E-04,-0.080
4.92000E-04,-0.080
4.93000E-04,-0.160
4.94000E-04,-0.080
4.95000E-04,-0.080
4.96000E-04,-0.080
4.97000E-04,-0.120
4.98000E-04,-0.080
4.99000E-04,-0.040
5.00000E-04,-0.040
5.01000E-04,-0.040
5.02000E-04,0.000
5.03000E-04,-0.080
5.04000E-04,3.240
5.05000E-04,3.320
5.06000E-04,3.360
5.07000E-04,3.360
5.08000E-04,3.360
5.09000E-04,3.320
5.10000E-04,3.280
5.11000E-04,3.360
5.12000E-04,3.320
5.13000E-04,3.360
5.14000E-04,3.320
5.15000E-04,3.360
5.16000E-04,3.320
5.17000E-04,3.320
5.18000E-04,3.360
5.19000E-04,3.320
5.20000E-04,3.320
5.21000E-04,3.360
5.22000E-04,3.360
5.23000E-04,3.280
5.24000E-04,3.320
5.25000E-04,3.360
5.26000E-04,3.360
5.27000E-04,3.360
5.28000E-04,3.320
5.29000E-04,3.360
5.30000E-04,3.360
5.31000E-04,3.360
5.32000E-04,3.360
5.33000E-04,3.320
5.34000E-04,3.360
5.35000E-04,3.360
5.36000E-04,3.320
5.37000E-04,3.360
5.38000E-04,3.360
5.39000E-04,3.320
5.40000E-04,3.320
5.41000E-04,3.320
5.42000E-04,3.320
5.43000E-04,3.320
5.44000E-04,3.320
5.45000E-04,3.360
5.46000E-04,3.320
5.47000E-04,3.320
5.48000E-04,3.320
5.49000E-04,3.360
5.50000E-04,3.360
5.51000E-04,3.360
5.52000E-04,3.360
5.53000E-04,3.320
5.54000E-04,-0.040
5.55000E-04,-0.080
5.56000E-04,-0.080
5.57000E-04,-0.080
5.58000E-04,-0.120
5.59000E-04,-0.120
5.60000E-04,-0.040
5.61000E-04,-0.080
5.62000E-04,-0.040
5.63000E-04,-0.080
5.64000E-04,-0.080
5.65000E-04,-0.080
5.66000E-04,-0.120
5.67000E-04,-0.120
5.68000E-04,-0.160
5.69000E-04,-0.080
5.70000E-04,-0.080
5.71000E-04,-0.040
5.72000E-04,-0.080
5.73000E-04,-0.080
5.74000E-04,-0.080
5.75000E-04,-0.080
5.76000E-04,-0.080
5.77000E-04,-0.080
5.78000E-04,-0.080
5.79000E-04,-0.040
5.80000E-04,-0.080
5.81000E-04,-0.080
5.82000E-04,-0.080
5.83000E-04,-0.080
5.84000E-04,0.000
5.85000E-04,-0.080
5.86000E-04,-0.040
5.87000E-04,-0.080
5.88000E-04,-0.080
5.89000E-04,-0.080
5.90000E-04,-0.120
5.91000E-04,-0.120
5.92000E-04,-0.080
5.93000E-04,-0.080
5.94000E-04,-0.040
5.95000E-04,-0.080
5.96000E-04,-0.080
5.97000E-04,0.040
5.98000E-04,-0.120
5.99000E-04,-0.080
6.00000E-04,-0.080
6.01000E-04,-0.040
6.02000E-04,-0.120
6.03000E-04,-0.080
6.04000E-04,3.240
6.05000E-04,3.280
6.06000E-04,3.320
6.07000E-04,3.320
6.08000E-04,3.280
6.09000E-04,3.360
6.10000E-04,3.320
6.11000E-04,3.360
6.12000E-04,3.360
6.13000E-04,3.360
6.14000E-04,3.280
6.15000E-04,3.320
6.16000E-04,3.360
6.17000E-04,3.360
6.18000E-04,3.360
6.19000E-04,3.360
6.20000E-04,3.320
6.21000E-04,3.360
6.22000E-04,3.320
6.23000E-04,3.320
6.24000E-04,3.360
6.25000E-04,3.320
6.26000E-04,3.360
6.27000E-04,3.360
6.28000E-04,3.320
6.29000E-04,3.320
6.30000E-04,3.360
6.31000E-04,3.320
6.32000E-04,3.360
6.33000E-04,3.320
6.34000E-04,3.360
6.35000E-04,3.360
6.36000E-04,3.360
6.37000E-04,3.320
6.38000E-04,3.360
6.39000E-04,3.320
6.40000E-04,3.360
6.41000E-04,3.320
6.42000E-04,3.320
6.43000E-04,3.320
6.44000E-04,3.320
6.45000E-04,3.320
6.46000E-04,3.320
6.47000E-04,3.320
6.48000E-04,3.320
6.49000E-04,3.320
6.50000E-04,3.320
6.51000E-04,3.320
6.52000E-04,3.360
6.53000E-04,3.320
6.54000E-04,-0.040
6.55000E-04,0.000
6.56000E-04,-0.040
6.57000E-04,-0.040
6.58000E-04,-0.080
6.59000E-04,-0.080
6.60000E-04,-0.080
6.61000E-04,-0.120
6.62000E-04,-0.080
6.63000E-04,-0.080
6.64000E-04,-0.080
6.65000E-04,-0.080
6.66000E-04,-0.040
6.67000E-04,-0.080
6.68000E-04,-0.040
6.69000E-04,-0.040
6.70000E-04,-0.080
6.71000E-04,-0.080
6.72000E-04,-0.080
6.73000E-04,-0.040
6.74000E-04,-0.040
6.75000E-04,-0.080
6.76000E-04,-0.080
6.77000E-04,-0.120
6.78000E-04,-0.040
6.79000E-04,-0.080
6.80000E-04,-0.040
6.81000E-04,-0.040
6.82000E-04,-0.040
6.83000E-04,-0.080
6.84000E-04,-0.080
6.85000E-04,-0.080
6.86000E-04,-0.080
6.87000E-04,-0.080
6.88000E-04,-0.080
6.89000E-04,-0.080
6.90000E-04,-0.040
6.91000E-04,-0.080
6.92000E-04,-0.040
6.93000E-04,-0.040
6.94000E-04,-0.080
6.95000E-04,-0.080
6.96000E-04,-0.080
6.97000E-04,-0.040
6.98000E-04,-0.040
6.99000E-04,-0.040
7.00000E-04,-0.040
7.01000E-04,-0.080
7.02000E-04,-0.040
7.03000E-04,-0.040
7.04000E-04,3.280
7.05000E-04,3.280
7.06000E-04,3.240
7.07000E-04,3.320
7.08000E-04,3.280
7.09000E-04,3.360
7.10000E-04,3.320
7.11000E-04,3.320
7.12000E-04,3.360
7.13000E-04,3.360
7.14000E-04,3.360
7.15000E-04,3.360
7.16000E-04,3.360
7.17000E-04,3.360
7.18000E-04,3.360
7.19000E-04,3.360
7.20000E-04,3.360
7.21000E-04,3.320
7.22000E-04,3.320
7.23000E-04,3.280
7.24000E-04,3.320
7.25000E-04,3.360
7.26000E-04,3.320
7.27000E-04,3.360
7.28000E-04,3.320
7.29000E-04,3.320
7.30000E-04,3.280
7.31000E-04,3.360
7.32000E-04,3.360
7.33000E-04,3.320
7.34000E-04,3.320
7.35000E-04,3.360
7.36000E-04,3.360
7.37000E-04,3.360
7.38000E-04,3.320
7.39000E-04,3.360
7.40000E-04,3.320
7.41000E-04,3.320
7.42000E-04,3.320
7.43000E-04,3.320
7.44000E-04,3.320
7.45000E-04,3.360
7.46000E-04,3.280
7.47000E-04,3.320
7.48000E-04,3.360
7.49000E-04,3.320
7.50000E-04,3.320
7.51000E-04,3.360
7.52000E-04,3.320
7.53000E-04,3.360
7.54000E-04,-0.040
7.55000E-04,-0.080
7.56000E-04,-0.080
7.57000E-04,-0.040
7.58000E-04,-0.040
7.59000E-04,-0.040
7.60000E-04,0.000
7.61000E-04,-0.040
7.62000E-04,-0.040
7.63000E-04,0.000
7.64000E-04,-0.040
7.65000E-04,-0.080
7.66000E-04,-0.080
7.67000E-04,-0.080
7.68000E-04,-0.080
7.69000E-04,-0.080
7.70000E-04,-0.120
7.71000E-04,-0.120
7.72000E-04,-0.120
7.73000E-04,-0.080
7.74000E-04,-0.080
7.75000E-04,-0.040
7.76000E-04,-0.040
7.77000E-04,-0.080
7.78000E-04,-0.080
7.79000E-04,-0.040
7.80000E-04,-0.080
7.81000E-04,-0.040
7.82000E-04,-0.120
7.83000E-04,-0.120
7.84000E-04,-0.080
7.85000E-04,-0.120
7.86000E-04,-0.080
7.87000E-04,-0.080
7.88000E-04,-0.080
7.89000E-04,-0.120
7.90000E-04,-0.120
7.91000E-04,-0.080
7.92000E-04,-0.040
7.93000E-04,-0.080
7.94000E-04,-0.040
7.95000E-04,-0.080
7.96000E-04,-0.080
7.97000E-04,-0.080
7.98000E-04,-0.080
7.99000E-04,-0.120
8.00000E-04,-0.120
8.01000E-04,-0.120
8.02000E-04,-0.120
8.03000E-04,-0.080
8.04000E-04,3.280
8.05000E-04,3.280
8.06000E-04,3.320
8.07000E-04,3.280
8.08000E-04,3.320
8.09000E-04,3.360
8.10000E-04,3.360
8.11000E-04,3.320
8.12000E-04,3.360
8.13000E-04,3.360
8.14000E-04,3.320
8.15000E-04,3.360
8.16000E-04,3.320
8.17000E-04,3.320
8.18000E-04,3.360
8.19000E-04,3.360
8.20000E-04,3.360
8.21000E-04,3.320
8.22000E-04,3.360
8.23000E-04,3.400
8.24000E-04,3.360
8.25000E-04,3.320
8.26000E-04,3.360
8.27000E-04,3.320
8.28000E-04,3.360
8.29000E-04,3.360
8.30000E-04,3.320
8.31000E-04,3.360
8.32000E-04,3.320
8.33000E-04,3.320
8.34000E-04,3.360
8.35000E-04,3.320
8.36000E-04,3.320
8.37000E-04,3.320
8.38000E-04,3.360
8.39000E-04,3.320
8.40000E-04,3.320
8.41000E-04,3.360
8.42000E-04,3.320
8.43000E-04,3.360
8.44000E-04,3.320
8.45000E-04,3.360
8.46000E-04,3.360
8.47000E-04,3.360
8.48000E-04,3.360
8.49000E-04,3.320
8.50000E-04,3.360
8.51000E-04,3.360
8.52000E-04,3.320
8.53000E-04,3.360
8.54000E-04,-0.040
8.55000E-04,-0.040
8.56000E-04,-0.120
8.57000E-04,-0.040
8.58000E-04,-0.040
8.59000E-04,-0.080
8.60000E-04,-0.080
8.61000E-04,0.000
8.62000E-04,-0.040
8.63000E-04,-0.040
8.64000E-04,-0.040
8.65000E-04,-0.080
8.66000E-04,-0.080
8.67000E-04,-0.080
8.68000E-04,-0.080
8.69000E-04,-0.080
8.70000E-04,-0.040
8.71000E-04,-0.080
8.72000E-04,-0.040
8.73000E-04,-0.040
8.74000E-04,-0.040
8.75000E-04,-0.080
8.76000E-04,-0.080
8.77000E-04,-0.080
8.78000E-04,-0.080
8.79000E-04,-0.080
8.80000E-04,-0.080
8.81000E-04,-0.040
8.82000E-04,-0.080
8.83000E-04,-0.080
8.84000E-04,-0.080
8.85000E-04,-0.040
8.86000E-04,-0.080
8.87000E-04,-0.040
8.88000E-04,-0.040
8.89000E-04,-0.080
8.90000E-04,-0.080
8.91000E-04,-0.040
8.92000E-04,-0.040
8.93000E-04,-0.080
8.94000E-04,-0.040
8.95000E-04,-0.120
8.96000E-04,-0.040
8.97000E-04,-0.080
8.98000E-04,-0.080
8.99000E-04,-0.080
9.00000E-04,-0.080
9.01000E-04,-0.080
9.02000E-04,-0.120
9.03000E-04,-0.080
9.04000E-04,3.280
9.05000E-04,3.320
9.06000E-04,3.360
9.07000E-04,3.360
9.08000E-04,3.320
9.09000E-04,3.360
9.10000E-04,3.360
9.11000E-04,3.320
9.12000E-04,3.320
9.13000E-04,3.320
9.14000E-04,3.320
9.15000E-04,3.360
9.16000E-04,3.320
9.17000E-04,3.360
9.18000E-04,3.320
9.19000E-04,3.280
9.20000E-04,3.360
9.21000E-04,3.320
9.22000E-04,3.360
9.23000E-04,3.320
9.24000E-04,3.320
9.25000E-04,3.360
9.26000E-04,3.360
9.27000E-04,3.320
9.28000E-04,3.280
9.29000E-04,3.360
9.30000E-04,3.360
9.31000E-04,3.360
9.32000E-04,3.320
9.33000E-04,3.360
9.34000E-04,3.320
9.35000E-04,3.320
9.36000E-04,3.320
9.37000E-04,3.320
9.38000E-04,3.320
9.39000E-04,3.360
9.40000E-04,3.320
9.41000E-04,3.360
9.42000E-04,3.360
9.43000E-04,3.320
9.44000E-04,3.360
9.45000E-04,3.360
9.46000E-04,3.360
9.47000E-04,3.320
9.48000E-04,3.360
9.49000E-04,3.360
9.50000E-04,3.360
9.51000E-04,3.360
9.52000E-04,3.360
9.53000E-04,3.360
9.54000E-04,0.000
9.55000E-04,-0.040
9.56000E-04,-0.080
9.57000E-04,-0.080
9.58000E-04,-0.120
9.59000E-04,-0.120
9.60000E-04,-0.120
9.61000E-04,-0.120
9.62000E-04,-0.080
9.63000E-04,-0.080
9.64000E-04,-0.040
9.65000E-04,-0.040
9.66000E-04,-0.080
9.67000E-04,-0.040
9.68000E-04,-0.160
9.69000E-04,-0.080
9.70000E-04,-0.080
9.71000E-04,-0.080
9.72000E-04,-0.040
9.73000E-04,-0.080
9.74000E-04,-0.080
9.75000E-04,-0.080
9.76000E-04,-0.080
9.77000E-04,-0.080
9.78000E-04,-0.080
9.79000E-04,-0.080
9.80000E-04,-0.080
9.81000E-04,-0.080
9.82000E-04,-0.080
9.83000E-04,-0.080
9.84000E-04,-0.080
9.85000E-04,-0.040
9.86000E-04,-0.120
9.87000E-04,-0.080
9.88000E-04,-0.160
9.89000E-04,-0.120
9.90000E-04,-0.120
9.91000E-04,-0.080
9.92000E-04,-0.040
9.93000E-04,-0.040
9.94000E-04,-0.040
9.95000E-04,-0.080
9.96000E-04,-0.080
9.97000E-04,-0.080
9.98000E-04,-0.080
9.99000E-04,-0.080
1.00000E-03,-0.080
1.00100E-03,-0.080
1.00200E-03,-0.080
1.00300E-03,-0.080
1.00400E-03,3.240
1.00500E-03,3.320
1.00600E-03,3.240
1.00700E-03,3.320
1.00800E-03,3.360
1.00900E-03,3.360
1.01000E-03,3.360
1.01100E-03,3.320
1.01200E-03,3.320
1.01300E-03,3.320
1.01400E-03,3.360
1.01500E-03,3.320
1.01600E-03,3.320
1.01700E-03,3.360
1.01800E-03,3.320
1.01900E-03,3.360
1.02000E-03,3.320
1.02100E-03,3.360
1.02200E-03,3.320
1.02300E-03,3.360
1.02400E-03,3.320
1.02500E-03,3.360
1.02600E-03,3.320
1.02700E-03,3.360
1.02800E-03,3.360
1.02900E-03,3.360
1.03000E-03,3.320
1.03100E-03,3.360
1.03200E-03,3.320
1.03300E-03,3.320
1.03400E-03,3.320
1.03500E-03,3.320
1.03600E-03,3.360
1.03700E-03,3.360
1.03800E-03,3.320
1.03900E-03,3.320
1.04000E-03,3.360
1.04100E-03,3.320
1.04200E-03,3.320
1.04300E-03,3.360
1.04400E-03,3.360
1.04500E-03,3.320
1.04600E-03,3.320
1.04700E-03,3.280
1.04800E-03,3.360
1.04900E-03,3.320
1.05000E-03,3.360
1.05100E-03,3.280
1.05200E-03,3.320
1.05300E-03,3.360
1.05400E-03,-0.040
1.05500E-03,-0.040
1.05600E-03,-0.040
1.05700E-03,-0.080
1.05800E-03,-0.040
1.05900E-03,-0.040
1.06000E-03,-0.080
1.06100E-03,-0.080
1.06200E-03,-0.080
1.06300E-03,-0.120
1.06400E-03,-0.080
1.06500E-03,-0.080
1.06600E-03,-0.040
1.06700E-03,-0.120
1.06800E-03,-0.040
1.06900E-03,-0.120
1.07000E-03,-0.160
1.07100E-03,-0.080
1.07200E-03,-0.080
1.07300E-03,-0.080
1.07400E-03,-0.080
1.07500E-03,-0.080
1.07600E-03,-0.080
1.07700E-03,-0.080
