scripts/decoder_tests/i2c/waves/4k/i2c_400000hz_100spc_CH2.csv

#timebase=4000000(ns)
,#voltbase=1000000(mv/100)
#size=4064
2.00000E-08,3.360
4.00000E-08,3.360
6.00000E-08,3.320
8.00000E-08,3.320
1.00000E-07,3.320
1.20000E-07,3.320
1.40000E-07,3.360
1.60000E-07,3.360
1.80000E-07,3.320
2.00000E-07,3.280
2.20000E-07,3.320
2.40000E-07,3.320
2.60000E-07,3.320
2.80000E-07,3.320
3.00000E-07,3.320
3.20000E-07,3.320
3.40000E-07,3.320
3.60000E-07,3.320
3.80000E-07,3.320
4.00000E-07,3.360
4.20000E-07,3.320
4.40000E-07,3.360
4.60000E-07,3.280
4.80000E-07,3.320
5.00000E-07,3.320
5.20000E-07,3.320
5.40000E-07,3.320
5.60000E-07,3.320
5.80000E-07,3.360
6.00000E-07,3.360
6.20000E-07,3.320
6.40000E-07,3.360
6.60000E-07,3.400
6.80000E-07,3.360
7.00000E-07,3.320
7.20000E-07,3.320
7.40000E-07,3.320
7.60000E-07,3.320
7.80000E-07,3.320
8.00000E-07,3.320
8.20000E-07,3.360
8.40000E-07,3.320
8.60000E-07,3.360
8.80000E-07,3.320
9.00000E-07,3.360
9.20000E-07,3.320
9.40000E-07,3.320
9.60000E-07,3.360
9.80000E-07,3.320
1.00000E-06,3.360
1.02000E-06,3.400
1.04000E-06,3.320
1.06000E-06,3.360
1.08000E-06,3.360
1.10000E-06,3.320
1.12000E-06,3.360
1.14000E-06,3.360
1.16000E-06,3.320
1.18000E-06,3.320
1.20000E-06,3.360
1.22000E-06,3.360
1.24000E-06,3.320
1.26000E-06,3.360
1.28000E-06,3.320
1.30000E-06,3.320
1.32000E-06,3.320
1.34000E-06,3.320
1.36000E-06,3.320
1.38000E-06,3.360
1.40000E-06,3.360
1.42000E-06,3.360
1.44000E-06,3.320
1.46000E-06,3.320
1.48000E-06,3.320
1.50000E-06,3.320
1.52000E-06,3.320
1.54000E-06,3.360
1.56000E-06,3.360
1.58000E-06,3.320
1.60000E-06,3.320
1.62000E-06,3.360
1.64000E-06,3.360
1.66000E-06,3.320
1.68000E-06,3.360
1.70000E-06,3.360
1.72000E-06,3.360
1.74000E-06,3.320
1.76000E-06,3.320
1.78000E-06,3.320
1.80000E-06,3.360
1.82000E-06,3.320
1.84000E-06,3.320
1.86000E-06,3.320
1.88000E-06,3.400
1.90000E-06,3.360
1.92000E-06,3.320
1.94000E-06,3.400
1.96000E-06,3.320
1.98000E-06,3.320
2.00000E-06,3.320
2.02000E-06,3.360
2.04000E-06,3.360
2.06000E-06,3.360
2.08000E-06,3.320
2.10000E-06,3.320
2.12000E-06,3.360
2.14000E-06,3.360
2.16000E-06,3.320
2.18000E-06,3.360
2.20000E-06,3.360
2.22000E-06,3.400
2.24000E-06,3.320
2.26000E-06,3.320
2.28000E-06,3.360
2.30000E-06,3.320
2.32000E-06,3.320
2.34000E-06,3.320
2.36000E-06,3.360
2.38000E-06,3.360
2.40000E-06,3.320
2.42000E-06,3.360
2.44000E-06,3.360
2.46000E-06,3.320
2.48000E-06,3.360
2.50000E-06,3.320
2.52000E-06,3.320
2.54000E-06,3.360
2.56000E-06,3.320
2.58000E-06,3.320
2.60000E-06,3.360
2.62000E-06,3.360
2.64000E-06,3.400
2.66000E-06,3.320
2.68000E-06,3.360
2.70000E-06,3.320
2.72000E-06,3.320
2.74000E-06,3.320
2.76000E-06,3.360
2.78000E-06,3.440
2.80000E-06,3.320
2.82000E-06,3.320
2.84000E-06,3.320
2.86000E-06,3.360
2.88000E-06,3.400
2.90000E-06,3.320
2.92000E-06,3.320
2.94000E-06,3.320
2.96000E-06,3.400
2.98000E-06,3.400
3.00000E-06,3.360
3.02000E-06,3.360
3.04000E-06,3.360
3.06000E-06,3.360
3.08000E-06,3.320
3.10000E-06,3.360
3.12000E-06,3.400
3.14000E-06,3.360
3.16000E-06,3.320
3.18000E-06,3.360
3.20000E-06,3.320
3.22000E-06,3.360
3.24000E-06,3.360
3.26000E-06,3.360
3.28000E-06,3.400
3.30000E-06,3.360
3.32000E-06,3.360
3.34000E-06,3.360
3.36000E-06,3.320
3.38000E-06,3.400
3.40000E-06,3.400
3.42000E-06,3.320
3.44000E-06,3.400
3.46000E-06,3.360
3.48000E-06,3.360
3.50000E-06,3.360
3.52000E-06,3.400
3.54000E-06,3.360
3.56000E-06,3.360
3.58000E-06,3.360
3.60000E-06,3.360
3.62000E-06,3.360
3.64000E-06,3.360
3.66000E-06,3.360
3.68000E-06,3.360
3.70000E-06,3.360
3.72000E-06,3.360
3.74000E-06,3.360
3.76000E-06,3.360
3.78000E-06,3.320
3.80000E-06,3.360
3.82000E-06,3.320
3.84000E-06,3.360
3.86000E-06,3.400
3.88000E-06,3.320
3.90000E-06,3.360
3.92000E-06,3.360
3.94000E-06,3.360
3.96000E-06,3.360
3.98000E-06,3.360
4.00000E-06,3.400
4.02000E-06,3.360
4.04000E-06,3.400
4.06000E-06,3.320
4.08000E-06,3.320
4.10000E-06,3.360
4.12000E-06,3.360
4.14000E-06,3.320
4.16000E-06,3.360
4.18000E-06,3.320
4.20000E-06,3.360
4.22000E-06,3.360
4.24000E-06,3.360
4.26000E-06,3.400
4.28000E-06,3.400
4.30000E-06,3.360
4.32000E-06,3.400
4.34000E-06,3.360
4.36000E-06,3.360
4.38000E-06,3.400
4.40000E-06,3.360
4.42000E-06,3.400
4.44000E-06,3.400
4.46000E-06,3.360
4.48000E-06,3.360
4.50000E-06,3.360
4.52000E-06,3.400
4.54000E-06,3.320
4.56000E-06,3.360
4.58000E-06,3.360
4.60000E-06,3.360
4.62000E-06,3.440
4.64000E-06,3.360
4.66000E-06,3.440
4.68000E-06,3.320
4.70000E-06,3.360
4.72000E-06,3.360
4.74000E-06,3.360
4.76000E-06,3.360
4.78000E-06,3.320
4.80000E-06,3.400
4.82000E-06,3.360
4.84000E-06,3.320
4.86000E-06,3.320
4.88000E-06,3.360
4.90000E-06,3.400
4.92000E-06,3.320
4.94000E-06,3.400
4.96000E-06,3.360
4.98000E-06,3.360
5.00000E-06,3.320
5.02000E-06,3.400
5.04000E-06,3.360
5.06000E-06,3.360
5.08000E-06,3.320
5.10000E-06,3.320
5.12000E-06,3.360
5.14000E-06,3.400
5.16000E-06,3.320
5.18000E-06,3.320
5.20000E-06,3.400
5.22000E-06,3.400
5.24000E-06,3.320
5.26000E-06,3.320
5.28000E-06,3.360
5.30000E-06,3.360
5.32000E-06,3.400
5.34000E-06,3.400
5.36000E-06,3.360
5.38000E-06,3.360
5.40000E-06,3.360
5.42000E-06,3.320
5.44000E-06,3.360
5.46000E-06,3.360
5.48000E-06,3.360
5.50000E-06,3.360
5.52000E-06,3.400
5.54000E-06,3.360
5.56000E-06,3.360
5.58000E-06,3.400
5.60000E-06,3.360
5.62000E-06,3.400
5.64000E-06,3.360
5.66000E-06,3.400
5.68000E-06,3.360
5.70000E-06,3.400
5.72000E-06,3.320
5.74000E-06,3.360
5.76000E-06,3.360
5.78000E-06,3.360
5.80000E-06,3.320
5.82000E-06,3.360
5.84000E-06,3.360
5.86000E-06,3.360
5.88000E-06,3.400
5.90000E-06,3.360
5.92000E-06,3.400
5.94000E-06,3.360
5.96000E-06,3.360
5.98000E-06,3.400
6.00000E-06,3.400
6.02000E-06,3.320
6.04000E-06,3.400
6.06000E-06,3.400
6.08000E-06,3.400
6.10000E-06,3.360
6.12000E-06,3.320
6.14000E-06,3.400
6.16000E-06,3.360
6.18000E-06,3.400
6.20000E-06,3.400
6.22000E-06,3.320
6.24000E-06,3.400
6.26000E-06,3.360
6.28000E-06,3.400
6.30000E-06,3.360
6.32000E-06,3.320
6.34000E-06,3.400
6.36000E-06,3.320
6.38000E-06,3.400
6.40000E-06,3.320
6.42000E-06,3.360
6.44000E-06,3.360
6.46000E-06,3.360
6.48000E-06,3.400
6.50000E-06,3.360
6.52000E-06,3.360
6.54000E-06,3.400
6.56000E-06,3.360
6.58000E-06,3.360
6.60000E-06,3.400
6.62000E-06,3.360
6.64000E-06,3.320
6.66000E-06,3.320
6.68000E-06,3.400
6.70000E-06,3.400
6.72000E-06,3.360
6.74000E-06,3.320
6.76000E-06,3.400
6.78000E-06,3.360
6.80000E-06,3.360
6.82000E-06,3.320
6.84000E-06,3.400
6.86000E-06,3.400
6.88000E-06,3.320
6.90000E-06,3.400
6.92000E-06,3.360
6.94000E-06,3.360
6.96000E-06,3.400
6.98000E-06,3.400
7.00000E-06,3.360
7.02000E-06,3.360
7.04000E-06,3.360
7.06000E-06,3.320
7.08000E-06,3.400
7.10000E-06,3.360
7.12000E-06,3.360
7.14000E-06,3.360
7.16000E-06,3.360
7.18000E-06,3.320
7.20000E-06,3.400
7.22000E-06,3.360
7.24000E-06,3.320
7.26000E-06,3.360
7.28000E-06,3.400
7.30000E-06,3.360
7.32000E-06,3.360
7.34000E-06,3.400
7.36000E-06,3.320
7.38000E-06,3.360
7.40000E-06,3.320
7.42000E-06,3.400
7.44000E-06,3.400
7.46000E-06,3.360
7.48000E-06,3.400
7.50000E-06,3.360
7.52000E-06,3.360
7.54000E-06,3.400
7.56000E-06,3.360
7.58000E-06,3.360
7.60000E-06,3.360
7.62000E-06,3.360
7.64000E-06,3.400
7.66000E-06,3.320
7.68000E-06,3.320
7.70000E-06,3.400
7.72000E-06,3.360
7.74000E-06,3.320
7.76000E-06,3.360
7.78000E-06,3.400
7.80000E-06,3.320
7.82000E-06,3.360
7.84000E-06,3.440
7.86000E-06,3.360
7.88000E-06,3.360
7.90000E-06,3.320
7.92000E-06,3.320
7.94000E-06,3.400
7.96000E-06,3.400
7.98000E-06,3.360
8.00000E-06,3.360
8.02000E-06,3.360
8.04000E-06,3.320
8.06000E-06,3.400
8.08000E-06,3.440
8.10000E-06,3.360
8.12000E-06,3.400
8.14000E-06,3.360
8.16000E-06,3.400
8.18000E-06,3.360
8.20000E-06,3.360
8.22000E-06,3.320
8.24000E-06,3.360
8.26000E-06,3.360
8.28000E-06,3.360
8.30000E-06,3.360
8.32000E-06,3.400
8.34000E-06,3.360
8.36000E-06,3.400
8.38000E-06,3.360
8.40000E-06,3.360
8.42000E-06,3.440
8.44000E-06,3.360
8.46000E-06,3.400
8.48000E-06,3.360
8.50000E-06,3.360
8.52000E-06,3.400
8.54000E-06,3.440
8.56000E-06,3.320
8.58000E-06,3.440
8.60000E-06,3.400
8.62000E-06,3.360
8.64000E-06,3.360
8.66000E-06,3.360
8.68000E-06,3.360
8.70000E-06,3.320
8.72000E-06,3.360
8.74000E-06,3.360
8.76000E-06,3.360
8.78000E-06,3.360
8.80000E-06,3.400
8.82000E-06,3.400
8.84000E-06,3.400
8.86000E-06,3.360
8.88000E-06,3.360
8.90000E-06,3.360
8.92000E-06,3.400
8.94000E-06,3.400
8.96000E-06,3.360
8.98000E-06,3.360
9.00000E-06,3.360
9.02000E-06,3.320
9.04000E-06,3.400
9.06000E-06,3.360
9.08000E-06,3.360
9.10000E-06,3.320
9.12000E-06,3.360
9.14000E-06,3.400
9.16000E-06,3.360
9.18000E-06,3.400
9.20000E-06,3.360
9.22000E-06,3.360
9.24000E-06,3.400
9.26000E-06,3.320
9.28000E-06,3.320
9.30000E-06,3.360
9.32000E-06,3.360
9.34000E-06,3.400
9.36000E-06,3.400
9.38000E-06,3.360
9.40000E-06,3.400
9.42000E-06,3.400
9.44000E-06,3.360
9.46000E-06,3.440
9.48000E-06,3.360
9.50000E-06,3.400
9.52000E-06,3.320
9.54000E-06,3.400
9.56000E-06,3.360
9.58000E-06,3.400
9.60000E-06,3.360
9.62000E-06,3.400
9.64000E-06,3.360
9.66000E-06,3.360
9.68000E-06,3.360
9.70000E-06,3.360
9.72000E-06,3.320
9.74000E-06,3.360
9.76000E-06,3.360
9.78000E-06,3.320
9.80000E-06,3.320
9.82000E-06,3.400
9.84000E-06,3.400
9.86000E-06,3.360
9.88000E-06,3.360
9.90000E-06,3.400
9.92000E-06,3.400
9.94000E-06,3.360
9.96000E-06,3.360
9.98000E-06,3.400
1.00000E-05,3.320
1.00200E-05,3.360
1.00400E-05,3.360
1.00600E-05,3.400
1.00800E-05,3.360
1.01000E-05,3.400
1.01200E-05,3.360
1.01400E-05,3.360
1.01600E-05,3.360
1.01800E-05,3.400
1.02000E-05,3.360
1.02200E-05,3.360
1.02400E-05,3.400
1.02600E-05,3.320
1.02800E-05,3.320
1.03000E-05,3.360
1.03200E-05,3.400
1.03400E-05,3.360
1.03600E-05,3.360
1.03800E-05,3.400
1.04000E-05,3.320
1.04200E-05,3.360
1.04400E-05,3.400
1.04600E-05,3.360
1.04800E-05,3.400
1.05000E-05,3.400
1.05200E-05,3.360
1.05400E-05,3.320
1.05600E-05,3.360
1.05800E-05,3.360
1.06000E-05,3.360
1.06200E-05,3.400
1.06400E-05,3.400
1.06600E-05,3.320
1.06800E-05,3.360
1.07000E-05,3.360
1.07200E-05,3.360
1.07400E-05,3.320
1.07600E-05,3.400
1.07800E-05,3.400
1.08000E-05,3.360
1.08200E-05,3.400
1.08400E-05,3.320
1.08600E-05,3.360
1.08800E-05,3.400
1.09000E-05,3.400
1.09200E-05,3.320
1.09400E-05,3.400
1.09600E-05,3.360
1.09800E-05,3.360
1.10000E-05,3.320
1.10200E-05,3.360
1.10400E-05,3.400
1.10600E-05,3.400
1.10800E-05,3.320
1.11000E-05,3.360
1.11200E-05,3.400
1.11400E-05,3.360
1.11600E-05,3.360
1.11800E-05,3.400
1.12000E-05,3.320
1.12200E-05,3.360
1.12400E-05,3.400
1.12600E-05,3.440
1.12800E-05,3.320
1.13000E-05,3.360
1.13200E-05,3.400
1.13400E-05,3.400
1.13600E-05,3.360
1.13800E-05,3.400
1.14000E-05,3.400
1.14200E-05,3.360
1.14400E-05,3.320
1.14600E-05,3.360
1.14800E-05,3.360
1.15000E-05,3.360
1.15200E-05,3.320
1.15400E-05,3.360
1.15600E-05,3.400
1.15800E-05,3.400
1.16000E-05,3.360
1.16200E-05,3.440
1.16400E-05,3.400
1.16600E-05,3.360
1.16800E-05,3.360
1.17000E-05,3.360
1.17200E-05,3.360
1.17400E-05,3.360
1.17600E-05,3.400
1.17800E-05,3.320
1.18000E-05,3.360
1.18200E-05,3.360
1.18400E-05,3.360
1.18600E-05,3.440
1.18800E-05,3.360
1.19000E-05,3.360
1.19200E-05,3.360
1.19400E-05,3.320
1.19600E-05,3.400
1.19800E-05,3.360
1.20000E-05,3.360
1.20200E-05,3.400
1.20400E-05,3.360
1.20600E-05,3.360
1.20800E-05,3.400
1.21000E-05,3.360
1.21200E-05,3.360
1.21400E-05,3.440
1.21600E-05,3.320
1.21800E-05,3.440
1.22000E-05,3.360
1.22200E-05,3.320
1.22400E-05,3.360
1.22600E-05,3.320
1.22800E-05,3.360
1.23000E-05,3.320
1.23200E-05,3.360
1.23400E-05,3.360
1.23600E-05,3.400
1.23800E-05,3.400
1.24000E-05,3.360
1.24200E-05,3.360
1.24400E-05,3.320
1.24600E-05,3.360
1.24800E-05,3.360
1.25000E-05,3.320
1.25200E-05,3.320
1.25400E-05,3.360
1.25600E-05,3.360
1.25800E-05,3.400
1.26000E-05,3.400
1.26200E-05,3.360
1.26400E-05,3.360
1.26600E-05,3.400
1.26800E-05,3.320
1.27000E-05,3.360
1.27200E-05,3.360
1.27400E-05,3.440
1.27600E-05,3.400
1.27800E-05,3.320
1.28000E-05,3.360
1.28200E-05,3.360
1.28400E-05,3.400
1.28600E-05,3.400
1.28800E-05,3.360
1.29000E-05,3.360
1.29200E-05,3.400
1.29400E-05,3.440
1.29600E-05,3.400
1.29800E-05,3.400
1.30000E-05,3.400
1.30200E-05,3.360
1.30400E-05,3.320
1.30600E-05,3.400
1.30800E-05,3.320
1.31000E-05,3.400
1.31200E-05,3.400
1.31400E-05,3.360
1.31600E-05,3.360
1.31800E-05,3.360
1.32000E-05,3.360
1.32200E-05,3.360
1.32400E-05,3.400
1.32600E-05,3.360
1.32800E-05,3.360
1.33000E-05,3.360
1.33200E-05,3.360
1.33400E-05,3.320
1.33600E-05,3.360
1.33800E-05,3.400
1.34000E-05,3.400
1.34200E-05,3.360
1.34400E-05,3.400
1.34600E-05,3.320
1.34800E-05,3.440
1.35000E-05,3.360
1.35200E-05,3.360
1.35400E-05,3.400
1.35600E-05,3.360
1.35800E-05,3.360
1.36000E-05,3.360
1.36200E-05,3.360
1.36400E-05,3.360
1.36600E-05,3.360
1.36800E-05,3.320
1.37000E-05,3.320
1.37200E-05,3.360
1.37400E-05,3.320
1.37600E-05,3.360
1.37800E-05,3.400
1.38000E-05,3.400
1.38200E-05,3.360
1.38400E-05,3.400
1.38600E-05,3.360
1.38800E-05,3.360
1.39000E-05,3.400
1.39200E-05,3.400
1.39400E-05,3.360
1.39600E-05,3.400
1.39800E-05,3.360
1.40000E-05,3.400
1.40200E-05,3.360
1.40400E-05,3.360
1.40600E-05,3.320
1.40800E-05,3.360
1.41000E-05,3.360
1.41200E-05,3.360
1.41400E-05,3.360
1.41600E-05,3.360
1.41800E-05,3.360
1.42000E-05,3.400
1.42200E-05,3.320
1.42400E-05,3.320
1.42600E-05,3.400
1.42800E-05,3.400
1.43000E-05,3.360
1.43200E-05,3.320
1.43400E-05,3.360
1.43600E-05,3.400
1.43800E-05,3.400
1.44000E-05,3.360
1.44200E-05,3.400
1.44400E-05,3.400
1.44600E-05,3.360
1.44800E-05,3.400
1.45000E-05,3.360
1.45200E-05,3.320
1.45400E-05,3.360
1.45600E-05,3.320
1.45800E-05,3.320
1.46000E-05,3.360
1.46200E-05,3.440
1.46400E-05,3.400
1.46600E-05,3.360
1.46800E-05,3.360
1.47000E-05,3.360
1.47200E-05,3.400
1.47400E-05,3.440
1.47600E-05,3.360
1.47800E-05,3.360
1.48000E-05,3.360
1.48200E-05,3.400
1.48400E-05,3.320
1.48600E-05,3.400
1.48800E-05,3.400
1.49000E-05,3.360
1.49200E-05,3.360
1.49400E-05,3.360
1.49600E-05,3.400
1.49800E-05,3.360
1.50000E-05,3.360
1.50200E-05,3.400
1.50400E-05,3.400
1.50600E-05,3.400
1.50800E-05,3.400
1.51000E-05,3.360
1.51200E-05,3.360
1.51400E-05,3.320
1.51600E-05,3.360
1.51800E-05,3.400
1.52000E-05,3.360
1.52200E-05,3.360
1.52400E-05,3.400
1.52600E-05,3.360
1.52800E-05,3.360
1.53000E-05,3.360
1.53200E-05,3.400
1.53400E-05,3.400
1.53600E-05,3.320
1.53800E-05,3.360
1.54000E-05,3.440
1.54200E-05,3.440
1.54400E-05,3.360
1.54600E-05,3.320
1.54800E-05,3.400
1.55000E-05,3.360
1.55200E-05,3.320
1.55400E-05,3.360
1.55600E-05,3.360
1.55800E-05,3.320
1.56000E-05,3.320
1.56200E-05,3.360
1.56400E-05,3.400
1.56600E-05,3.400
1.56800E-05,3.360
1.57000E-05,3.400
1.57200E-05,3.320
1.57400E-05,3.360
1.57600E-05,3.400
1.57800E-05,3.360
1.58000E-05,3.360
1.58200E-05,3.360
1.58400E-05,3.400
1.58600E-05,3.360
1.58800E-05,3.360
1.59000E-05,3.360
1.59200E-05,3.360
1.59400E-05,3.320
1.59600E-05,3.400
1.59800E-05,3.360
1.60000E-05,3.320
1.60200E-05,3.360
1.60400E-05,3.400
1.60600E-05,2.800
1.60800E-05,1.480
1.61000E-05,0.840
1.61200E-05,0.520
1.61400E-05,0.360
1.61600E-05,0.240
1.61800E-05,0.160
1.62000E-05,0.160
1.62200E-05,0.160
1.62400E-05,0.120
1.62600E-05,0.120
1.62800E-05,0.120
1.63000E-05,0.120
1.63200E-05,0.120
1.63400E-05,0.120
1.63600E-05,0.120
1.63800E-05,0.080
1.64000E-05,0.120
1.64200E-05,0.120
1.64400E-05,0.120
1.64600E-05,0.120
1.64800E-05,0.160
1.65000E-05,0.120
1.65200E-05,0.080
1.65400E-05,0.120
1.65600E-05,0.080
1.65800E-05,0.120
1.66000E-05,0.080
1.66200E-05,0.120
1.66400E-05,0.120
1.66600E-05,0.080
1.66800E-05,0.120
1.67000E-05,0.120
1.67200E-05,0.120
1.67400E-05,0.040
1.67600E-05,0.120
1.67800E-05,0.120
1.68000E-05,0.120
1.68200E-05,0.080
1.68400E-05,0.080
1.68600E-05,0.040
1.68800E-05,0.040
1.69000E-05,0.040
1.69200E-05,0.080
1.69400E-05,0.040
1.69600E-05,0.080
1.69800E-05,0.040
1.70000E-05,0.120
1.70200E-05,0.120
1.70400E-05,0.080
1.70600E-05,0.080
1.70800E-05,0.080
1.71000E-05,0.080
1.71200E-05,0.120
1.71400E-05,0.080
1.71600E-05,0.120
1.71800E-05,0.080
1.72000E-05,0.040
1.72200E-05,0.040
1.72400E-05,0.120
1.72600E-05,0.080
1.72800E-05,0.120
1.73000E-05,0.080
1.73200E-05,0.080
1.73400E-05,0.040
1.73600E-05,0.080
1.73800E-05,0.000
1.74000E-05,0.040
1.74200E-05,0.080
1.74400E-05,0.040
1.74600E-05,0.080
1.74800E-05,0.040
1.75000E-05,0.080
1.75200E-05,0.080
1.75400E-05,0.080
1.75600E-05,0.000
1.75800E-05,0.040
1.76000E-05,0.040
1.76200E-05,0.040
1.76400E-05,0.000
1.76600E-05,0.080
1.76800E-05,0.080
1.77000E-05,0.120
1.77200E-05,0.080
1.77400E-05,0.080
1.77600E-05,0.080
1.77800E-05,0.080
1.78000E-05,0.080
1.78200E-05,0.080
1.78400E-05,0.080
1.78600E-05,0.040
1.78800E-05,0.040
1.79000E-05,0.080
1.79200E-05,0.040
1.79400E-05,0.080
1.79600E-05,0.080
1.79800E-05,0.040
1.80000E-05,0.040
1.80200E-05,0.040
1.80400E-05,0.040
1.80600E-05,0.040
1.80800E-05,0.120
1.81000E-05,0.040
1.81200E-05,0.080
1.81400E-05,0.040
1.81600E-05,0.080
1.81800E-05,0.080
1.82000E-05,0.040
1.82200E-05,0.040
1.82400E-05,0.040
1.82600E-05,0.000
1.82800E-05,0.040
1.83000E-05,0.000
1.83200E-05,0.080
1.83400E-05,0.080
1.83600E-05,0.160
1.83800E-05,0.120
1.84000E-05,0.040
1.84200E-05,0.080
1.84400E-05,0.040
1.84600E-05,0.080
1.84800E-05,0.120
1.85000E-05,0.040
1.85200E-05,0.040
1.85400E-05,0.080
1.85600E-05,0.080
1.85800E-05,0.080
1.86000E-05,0.040
1.86200E-05,0.040
1.86400E-05,0.040
1.86600E-05,0.080
1.86800E-05,0.040
1.87000E-05,0.040
1.87200E-05,0.040
1.87400E-05,0.080
1.87600E-05,0.040
1.87800E-05,0.040
1.88000E-05,0.040
1.88200E-05,0.080
1.88400E-05,0.080
1.88600E-05,0.080
1.88800E-05,0.040
1.89000E-05,0.120
1.89200E-05,0.080
1.89400E-05,0.040
1.89600E-05,0.040
1.89800E-05,0.080
1.90000E-05,0.040
1.90200E-05,0.040
1.90400E-05,0.000
1.90600E-05,0.040
1.90800E-05,0.080
1.91000E-05,0.120
1.91200E-05,0.120
1.91400E-05,0.080
1.91600E-05,0.040
1.91800E-05,0.040
1.92000E-05,0.040
1.92200E-05,0.040
1.92400E-05,0.040
1.92600E-05,0.040
1.92800E-05,0.080
1.93000E-05,0.040
1.93200E-05,0.040
1.93400E-05,0.040
1.93600E-05,0.040
1.93800E-05,0.080
1.94000E-05,0.080
1.94200E-05,0.080
1.94400E-05,0.080
1.94600E-05,0.080
1.94800E-05,0.080
1.95000E-05,0.040
1.95200E-05,0.040
1.95400E-05,0.040
1.95600E-05,0.040
1.95800E-05,0.080
1.96000E-05,0.080
1.96200E-05,0.080
1.96400E-05,0.080
1.96600E-05,0.040
1.96800E-05,0.040
1.97000E-05,0.040
1.97200E-05,0.040
1.97400E-05,0.040
1.97600E-05,0.080
1.97800E-05,0.040
1.98000E-05,0.040
1.98200E-05,0.040
1.98400E-05,0.120
1.98600E-05,0.080
1.98800E-05,0.080
1.99000E-05,0.000
1.99200E-05,0.040
1.99400E-05,0.080
1.99600E-05,0.000
1.99800E-05,0.000
2.00000E-05,0.000
2.00200E-05,0.040
2.00400E-05,0.040
2.00600E-05,0.080
2.00800E-05,0.080
2.01000E-05,0.080
2.01200E-05,0.080
2.01400E-05,0.040
2.01600E-05,0.080
2.01800E-05,0.080
2.02000E-05,0.080
2.02200E-05,0.080
2.02400E-05,0.080
2.02600E-05,0.080
2.02800E-05,0.040
2.03000E-05,0.080
2.03200E-05,0.000
2.03400E-05,0.080
2.03600E-05,0.040
2.03800E-05,0.040
2.04000E-05,0.040
2.04200E-05,0.040
2.04400E-05,0.040
2.04600E-05,0.040
2.04800E-05,0.040
2.05000E-05,0.040
2.05200E-05,0.040
2.05400E-05,0.040
2.05600E-05,0.040
2.05800E-05,0.040
2.06000E-05,0.040
2.06200E-05,0.040
2.06400E-05,1.000
2.06600E-05,2.120
2.06800E-05,2.680
2.07000E-05,2.960
2.07200E-05,3.160
2.07400E-05,3.160
2.07600E-05,3.200
2.07800E-05,3.240
2.08000E-05,3.280
2.08200E-05,3.320
2.08400E-05,3.280
2.08600E-05,3.240
2.08800E-05,3.280
2.09000E-05,3.280
2.09200E-05,3.280
2.09400E-05,3.320
2.09600E-05,3.320
2.09800E-05,3.280
2.10000E-05,3.320
2.10200E-05,3.280
2.10400E-05,3.280
2.10600E-05,3.280
2.10800E-05,3.360
2.11000E-05,3.360
2.11200E-05,3.280
2.11400E-05,3.320
2.11600E-05,3.280
2.11800E-05,3.320
2.12000E-05,3.320
2.12200E-05,3.280
2.12400E-05,3.280
2.12600E-05,3.360
2.12800E-05,3.280
2.13000E-05,3.280
2.13200E-05,3.280
2.13400E-05,3.320
2.13600E-05,3.320
2.13800E-05,3.360
2.14000E-05,3.320
2.14200E-05,3.320
2.14400E-05,3.320
2.14600E-05,3.360
2.14800E-05,3.280
2.15000E-05,3.320
2.15200E-05,3.320
2.15400E-05,3.280
2.15600E-05,3.280
2.15800E-05,3.320
2.16000E-05,3.280
2.16200E-05,3.360
2.16400E-05,3.320
2.16600E-05,3.280
2.16800E-05,3.360
2.17000E-05,3.360
2.17200E-05,3.320
2.17400E-05,3.320
2.17600E-05,3.320
2.17800E-05,3.320
2.18000E-05,3.320
2.18200E-05,3.360
2.18400E-05,3.360
2.18600E-05,3.320
2.18800E-05,3.360
2.19000E-05,3.320
2.19200E-05,3.320
2.19400E-05,3.360
2.19600E-05,3.320
2.19800E-05,3.320
2.20000E-05,3.360
2.20200E-05,3.360
2.20400E-05,3.280
2.20600E-05,3.320
2.20800E-05,3.320
2.21000E-05,3.320
2.21200E-05,3.320
2.21400E-05,3.360
