scripts/decoder_tests/i2c/waves/4k/i2c_1000000hz_100spc_CH1.csv

#timebase=2000000(ns)
,#voltbase=1000000(mv/100)
#size=4064
1.00000E-08,-0.080
2.00000E-08,-0.080
3.00000E-08,-0.040
4.00000E-08,-0.040
5.00000E-08,-0.080
6.00000E-08,-0.080
7.00000E-08,-0.080
8.00000E-08,-0.040
9.00000E-08,-0.080
1.00000E-07,-0.040
1.10000E-07,-0.080
1.20000E-07,-0.120
1.30000E-07,-0.040
1.40000E-07,-0.080
1.50000E-07,0.000
1.60000E-07,-0.040
1.70000E-07,-0.040
1.80000E-07,-0.080
1.90000E-07,-0.040
2.00000E-07,-0.040
2.10000E-07,-0.040
2.20000E-07,-0.080
2.30000E-07,-0.040
2.40000E-07,-0.080
2.50000E-07,-0.120
2.60000E-07,-0.080
2.70000E-07,-0.080
2.80000E-07,-0.040
2.90000E-07,0.000
3.00000E-07,0.000
3.10000E-07,-0.080
3.20000E-07,-0.080
3.30000E-07,-0.080
3.40000E-07,-0.080
3.50000E-07,-0.040
3.60000E-07,-0.040
3.70000E-07,-0.040
3.80000E-07,-0.040
3.90000E-07,-0.040
4.00000E-07,0.000
4.10000E-07,0.000
4.20000E-07,-0.080
4.30000E-07,-0.080
4.40000E-07,-0.080
4.50000E-07,-0.120
4.60000E-07,-0.080
4.70000E-07,-0.120
4.80000E-07,-0.080
4.90000E-07,-0.040
5.00000E-07,-0.040
5.10000E-07,-0.040
5.20000E-07,-0.040
5.30000E-07,0.000
5.40000E-07,-0.080
5.50000E-07,-0.080
5.60000E-07,-0.040
5.70000E-07,-0.080
5.80000E-07,-0.080
5.90000E-07,-0.080
6.00000E-07,0.000
6.10000E-07,-0.040
6.20000E-07,-0.080
6.30000E-07,-0.080
6.40000E-07,-0.080
6.50000E-07,-0.040
6.60000E-07,-0.040
6.70000E-07,-0.040
6.80000E-07,-0.080
6.90000E-07,-0.040
7.00000E-07,0.000
7.10000E-07,-0.040
7.20000E-07,-0.080
7.30000E-07,-0.080
7.40000E-07,-0.040
7.50000E-07,-0.040
7.60000E-07,-0.080
7.70000E-07,-0.080
7.80000E-07,-0.040
7.90000E-07,0.000
8.00000E-07,-0.080
8.10000E-07,-0.120
8.20000E-07,-0.080
8.30000E-07,-0.080
8.40000E-07,-0.040
8.50000E-07,-0.040
8.60000E-07,-0.080
8.70000E-07,-0.040
8.80000E-07,-0.080
8.90000E-07,-0.080
9.00000E-07,-0.040
9.10000E-07,-0.040
9.20000E-07,0.000
9.30000E-07,-0.040
9.40000E-07,-0.080
9.50000E-07,-0.080
9.60000E-07,-0.040
9.70000E-07,-0.080
9.80000E-07,-0.080
9.90000E-07,-0.080
1.00000E-06,0.000
1.01000E-06,-0.040
1.02000E-06,-0.040
1.03000E-06,-0.080
1.04000E-06,0.000
1.05000E-06,-0.080
1.06000E-06,-0.040
1.07000E-06,-0.040
1.08000E-06,-0.080
1.09000E-06,-0.040
1.10000E-06,-0.080
1.11000E-06,-0.080
1.12000E-06,-0.080
1.13000E-06,-0.120
1.14000E-06,-0.120
1.15000E-06,-0.120
1.16000E-06,-0.080
1.17000E-06,-0.040
1.18000E-06,-0.080
1.19000E-06,-0.080
1.20000E-06,-0.040
1.21000E-06,-0.080
1.22000E-06,-0.080
1.23000E-06,-0.080
1.24000E-06,-0.080
1.25000E-06,-0.040
1.26000E-06,-0.040
1.27000E-06,-0.080
1.28000E-06,-0.080
1.29000E-06,-0.040
1.30000E-06,-0.080
1.31000E-06,-0.040
1.32000E-06,-0.040
1.33000E-06,-0.080
1.34000E-06,-0.080
1.35000E-06,-0.040
1.36000E-06,-0.080
1.37000E-06,-0.040
1.38000E-06,-0.080
1.39000E-06,-0.080
1.40000E-06,-0.080
1.41000E-06,-0.040
1.42000E-06,-0.080
1.43000E-06,-0.080
1.44000E-06,-0.080
1.45000E-06,-0.040
1.46000E-06,-0.080
1.47000E-06,-0.080
1.48000E-06,-0.080
1.49000E-06,-0.080
1.50000E-06,-0.160
1.51000E-06,-0.080
1.52000E-06,-0.080
1.53000E-06,-0.080
1.54000E-06,-0.080
1.55000E-06,-0.080
1.56000E-06,-0.040
1.57000E-06,-0.040
1.58000E-06,-0.080
1.59000E-06,-0.080
1.60000E-06,-0.080
1.61000E-06,-0.120
1.62000E-06,-0.120
1.63000E-06,-0.080
1.64000E-06,-0.040
1.65000E-06,-0.080
1.66000E-06,-0.040
1.67000E-06,-0.040
1.68000E-06,-0.040
1.69000E-06,-0.040
1.70000E-06,-0.040
1.71000E-06,-0.040
1.72000E-06,-0.040
1.73000E-06,-0.040
1.74000E-06,-0.040
1.75000E-06,-0.040
1.76000E-06,-0.080
1.77000E-06,-0.080
1.78000E-06,-0.080
1.79000E-06,-0.120
1.80000E-06,-0.120
1.81000E-06,-0.080
1.82000E-06,-0.040
1.83000E-06,-0.080
1.84000E-06,-0.040
1.85000E-06,-0.080
1.86000E-06,-0.080
1.87000E-06,-0.080
1.88000E-06,-0.080
1.89000E-06,-0.040
1.90000E-06,-0.040
1.91000E-06,-0.040
1.92000E-06,0.000
1.93000E-06,0.000
1.94000E-06,-0.040
1.95000E-06,0.000
1.96000E-06,-0.080
1.97000E-06,-0.080
1.98000E-06,-0.040
1.99000E-06,-0.040
2.00000E-06,-0.080
2.01000E-06,-0.080
2.02000E-06,-0.080
2.03000E-06,-0.080
2.04000E-06,-0.080
2.05000E-06,-0.080
2.06000E-06,-0.040
2.07000E-06,-0.080
2.08000E-06,-0.080
2.09000E-06,-0.080
2.10000E-06,-0.040
2.11000E-06,-0.080
2.12000E-06,-0.040
2.13000E-06,-0.040
2.14000E-06,-0.080
2.15000E-06,-0.080
2.16000E-06,-0.040
2.17000E-06,-0.080
2.18000E-06,-0.080
2.19000E-06,-0.080
2.20000E-06,-0.040
2.21000E-06,-0.080
2.22000E-06,0.000
2.23000E-06,-0.080
2.24000E-06,-0.080
2.25000E-06,-0.080
2.26000E-06,-0.080
2.27000E-06,0.480
2.28000E-06,1.440
2.29000E-06,2.000
2.30000E-06,2.440
2.31000E-06,2.720
2.32000E-06,2.920
2.33000E-06,3.000
2.34000E-06,3.040
2.35000E-06,3.200
2.36000E-06,3.160
2.37000E-06,3.200
2.38000E-06,3.200
2.39000E-06,3.200
2.40000E-06,3.240
2.41000E-06,3.240
2.42000E-06,3.200
2.43000E-06,3.200
2.44000E-06,3.200
2.45000E-06,3.240
2.46000E-06,3.240
2.47000E-06,3.200
2.48000E-06,3.280
2.49000E-06,3.320
2.50000E-06,3.240
2.51000E-06,3.200
2.52000E-06,3.240
2.53000E-06,3.200
2.54000E-06,3.320
2.55000E-06,3.280
2.56000E-06,3.320
2.57000E-06,3.240
2.58000E-06,3.240
2.59000E-06,3.280
2.60000E-06,3.240
2.61000E-06,3.360
2.62000E-06,3.240
2.63000E-06,3.240
2.64000E-06,3.280
2.65000E-06,3.320
2.66000E-06,3.240
2.67000E-06,3.240
2.68000E-06,3.280
2.69000E-06,3.200
2.70000E-06,3.240
2.71000E-06,3.360
2.72000E-06,3.280
2.73000E-06,3.280
2.74000E-06,3.280
2.75000E-06,3.240
2.76000E-06,3.240
2.77000E-06,3.280
2.78000E-06,3.280
2.79000E-06,3.240
2.80000E-06,3.240
2.81000E-06,3.240
2.82000E-06,3.240
2.83000E-06,3.280
2.84000E-06,3.240
2.85000E-06,3.240
2.86000E-06,3.240
2.87000E-06,3.200
2.88000E-06,3.280
2.89000E-06,3.280
2.90000E-06,3.280
2.91000E-06,3.240
2.92000E-06,3.320
2.93000E-06,3.240
2.94000E-06,3.200
2.95000E-06,3.320
2.96000E-06,3.280
2.97000E-06,3.280
2.98000E-06,3.240
2.99000E-06,3.320
3.00000E-06,3.360
3.01000E-06,3.320
3.02000E-06,3.240
3.03000E-06,3.320
3.04000E-06,3.240
3.05000E-06,3.280
3.06000E-06,3.320
3.07000E-06,3.280
3.08000E-06,3.200
3.09000E-06,3.240
3.10000E-06,3.280
3.11000E-06,3.360
3.12000E-06,3.320
3.13000E-06,3.320
3.14000E-06,3.280
3.15000E-06,3.280
3.16000E-06,3.320
3.17000E-06,3.240
3.18000E-06,3.280
3.19000E-06,3.280
3.20000E-06,3.320
3.21000E-06,3.280
3.22000E-06,3.280
3.23000E-06,3.240
3.24000E-06,3.320
3.25000E-06,3.280
3.26000E-06,3.280
3.27000E-06,3.360
3.28000E-06,3.320
3.29000E-06,3.280
3.30000E-06,3.360
3.31000E-06,3.280
3.32000E-06,3.280
3.33000E-06,3.280
3.34000E-06,3.280
3.35000E-06,3.240
3.36000E-06,3.280
3.37000E-06,3.280
3.38000E-06,3.320
3.39000E-06,3.280
3.40000E-06,3.280
3.41000E-06,3.360
3.42000E-06,3.360
3.43000E-06,3.320
3.44000E-06,3.280
3.45000E-06,3.360
3.46000E-06,3.360
3.47000E-06,3.320
3.48000E-06,3.360
3.49000E-06,3.240
3.50000E-06,3.280
3.51000E-06,3.280
3.52000E-06,3.280
3.53000E-06,3.280
3.54000E-06,3.280
3.55000E-06,3.240
3.56000E-06,3.320
3.57000E-06,3.240
3.58000E-06,3.320
3.59000E-06,3.280
3.60000E-06,3.360
3.61000E-06,3.320
3.62000E-06,3.240
3.63000E-06,3.240
3.64000E-06,3.320
3.65000E-06,3.240
3.66000E-06,3.280
3.67000E-06,3.320
3.68000E-06,3.280
3.69000E-06,3.280
3.70000E-06,3.280
3.71000E-06,3.240
3.72000E-06,3.200
3.73000E-06,3.240
3.74000E-06,3.320
3.75000E-06,3.280
3.76000E-06,3.280
3.77000E-06,3.240
3.78000E-06,3.320
3.79000E-06,3.320
3.80000E-06,3.360
3.81000E-06,3.280
3.82000E-06,2.760
3.83000E-06,1.800
3.84000E-06,1.200
3.85000E-06,0.800
3.86000E-06,0.560
3.87000E-06,0.320
3.88000E-06,0.160
3.89000E-06,0.160
3.90000E-06,0.120
3.91000E-06,0.080
3.92000E-06,0.080
3.93000E-06,0.080
3.94000E-06,0.040
3.95000E-06,0.040
3.96000E-06,0.000
3.97000E-06,0.040
3.98000E-06,-0.040
3.99000E-06,-0.040
4.00000E-06,0.000
4.01000E-06,0.040
4.02000E-06,0.040
4.03000E-06,-0.040
4.04000E-06,-0.040
4.05000E-06,-0.080
4.06000E-06,-0.040
4.07000E-06,-0.040
4.08000E-06,0.000
4.09000E-06,-0.040
4.10000E-06,-0.040
4.11000E-06,-0.040
4.12000E-06,0.000
4.13000E-06,-0.080
4.14000E-06,-0.080
4.15000E-06,-0.040
4.16000E-06,-0.040
4.17000E-06,0.040
4.18000E-06,-0.040
4.19000E-06,-0.080
4.20000E-06,0.040
4.21000E-06,-0.080
4.22000E-06,-0.080
4.23000E-06,-0.040
4.24000E-06,0.000
4.25000E-06,-0.040
4.26000E-06,-0.040
4.27000E-06,-0.040
4.28000E-06,-0.040
4.29000E-06,-0.040
4.30000E-06,-0.120
4.31000E-06,-0.040
4.32000E-06,-0.040
4.33000E-06,0.000
4.34000E-06,-0.040
4.35000E-06,-0.040
4.36000E-06,-0.040
4.37000E-06,0.000
4.38000E-06,-0.040
4.39000E-06,-0.040
4.40000E-06,-0.080
4.41000E-06,-0.040
4.42000E-06,-0.040
4.43000E-06,-0.080
4.44000E-06,-0.040
4.45000E-06,-0.040
4.46000E-06,0.000
4.47000E-06,-0.040
4.48000E-06,0.000
4.49000E-06,0.000
4.50000E-06,-0.040
4.51000E-06,-0.080
4.52000E-06,-0.040
4.53000E-06,-0.120
4.54000E-06,-0.080
4.55000E-06,-0.080
4.56000E-06,-0.080
4.57000E-06,-0.080
4.58000E-06,-0.040
4.59000E-06,-0.040
4.60000E-06,-0.040
4.61000E-06,-0.040
4.62000E-06,-0.080
4.63000E-06,-0.080
4.64000E-06,-0.080
4.65000E-06,-0.080
4.66000E-06,-0.040
4.67000E-06,-0.040
4.68000E-06,-0.040
4.69000E-06,-0.040
4.70000E-06,0.000
4.71000E-06,0.000
4.72000E-06,0.000
4.73000E-06,-0.080
4.74000E-06,-0.040
4.75000E-06,-0.040
4.76000E-06,-0.040
4.77000E-06,-0.080
4.78000E-06,-0.080
4.79000E-06,0.000
4.80000E-06,-0.040
4.81000E-06,-0.040
4.82000E-06,-0.040
4.83000E-06,-0.040
4.84000E-06,-0.080
4.85000E-06,-0.040
4.86000E-06,-0.040
4.87000E-06,-0.080
4.88000E-06,-0.080
4.89000E-06,-0.040
4.90000E-06,-0.040
4.91000E-06,-0.080
4.92000E-06,-0.080
4.93000E-06,0.000
4.94000E-06,-0.080
4.95000E-06,-0.040
4.96000E-06,-0.040
4.97000E-06,-0.040
4.98000E-06,-0.040
4.99000E-06,-0.120
5.00000E-06,-0.080
5.01000E-06,-0.040
5.02000E-06,-0.040
5.03000E-06,-0.120
5.04000E-06,-0.080
5.05000E-06,-0.120
5.06000E-06,-0.080
5.07000E-06,-0.080
5.08000E-06,-0.080
5.09000E-06,-0.080
5.10000E-06,-0.080
5.11000E-06,-0.080
5.12000E-06,-0.080
5.13000E-06,-0.080
5.14000E-06,-0.120
5.15000E-06,-0.080
5.16000E-06,-0.080
5.17000E-06,-0.080
5.18000E-06,-0.040
5.19000E-06,-0.040
5.20000E-06,-0.040
5.21000E-06,-0.040
5.22000E-06,-0.080
5.23000E-06,-0.080
5.24000E-06,-0.040
5.25000E-06,-0.080
5.26000E-06,0.000
5.27000E-06,-0.120
5.28000E-06,-0.040
5.29000E-06,-0.080
5.30000E-06,-0.080
5.31000E-06,-0.080
5.32000E-06,-0.080
5.33000E-06,-0.080
5.34000E-06,-0.080
5.35000E-06,-0.040
5.36000E-06,-0.040
5.37000E-06,-0.080
5.38000E-06,-0.080
5.39000E-06,-0.040
5.40000E-06,-0.080
5.41000E-06,-0.080
5.42000E-06,-0.040
5.43000E-06,-0.120
5.44000E-06,-0.040
5.45000E-06,-0.040
5.46000E-06,-0.040
5.47000E-06,-0.080
5.48000E-06,-0.080
5.49000E-06,-0.080
5.50000E-06,-0.040
5.51000E-06,0.000
5.52000E-06,0.000
5.53000E-06,-0.080
5.54000E-06,-0.080
5.55000E-06,-0.080
5.56000E-06,-0.040
5.57000E-06,-0.040
5.58000E-06,-0.040
5.59000E-06,-0.080
5.60000E-06,0.000
5.61000E-06,-0.080
5.62000E-06,-0.080
5.63000E-06,-0.080
5.64000E-06,-0.120
5.65000E-06,-0.080
5.66000E-06,-0.080
5.67000E-06,-0.080
5.68000E-06,-0.080
5.69000E-06,-0.120
5.70000E-06,-0.120
5.71000E-06,0.040
5.72000E-06,-0.120
5.73000E-06,-0.080
5.74000E-06,-0.080
5.75000E-06,-0.080
5.76000E-06,-0.120
5.77000E-06,-0.080
5.78000E-06,-0.040
5.79000E-06,-0.040
5.80000E-06,-0.080
5.81000E-06,-0.080
5.82000E-06,-0.080
5.83000E-06,-0.040
5.84000E-06,-0.080
5.85000E-06,-0.080
5.86000E-06,-0.120
5.87000E-06,-0.120
5.88000E-06,-0.080
5.89000E-06,-0.080
5.90000E-06,-0.080
5.91000E-06,-0.080
5.92000E-06,-0.080
5.93000E-06,-0.080
5.94000E-06,-0.080
5.95000E-06,-0.040
5.96000E-06,-0.080
5.97000E-06,-0.080
5.98000E-06,-0.120
5.99000E-06,-0.080
6.00000E-06,-0.080
6.01000E-06,0.000
6.02000E-06,-0.120
6.03000E-06,-0.080
6.04000E-06,-0.040
6.05000E-06,-0.080
6.06000E-06,-0.080
6.07000E-06,-0.040
6.08000E-06,-0.040
6.09000E-06,-0.080
6.10000E-06,-0.080
6.11000E-06,0.000
6.12000E-06,-0.080
6.13000E-06,-0.040
6.14000E-06,-0.080
6.15000E-06,-0.040
6.16000E-06,-0.040
6.17000E-06,-0.040
6.18000E-06,0.000
6.19000E-06,-0.080
6.20000E-06,-0.080
6.21000E-06,-0.080
6.22000E-06,-0.080
6.23000E-06,-0.080
6.24000E-06,-0.080
6.25000E-06,-0.080
6.26000E-06,-0.040
6.27000E-06,-0.080
6.28000E-06,-0.080
6.29000E-06,-0.120
6.30000E-06,-0.120
6.31000E-06,-0.040
6.32000E-06,-0.080
6.33000E-06,-0.080
6.34000E-06,-0.080
6.35000E-06,-0.040
6.36000E-06,-0.120
6.37000E-06,-0.080
6.38000E-06,-0.120
6.39000E-06,-0.080
6.40000E-06,-0.080
6.41000E-06,-0.080
6.42000E-06,-0.040
6.43000E-06,-0.040
6.44000E-06,0.000
6.45000E-06,-0.080
6.46000E-06,-0.040
6.47000E-06,-0.080
6.48000E-06,-0.080
6.49000E-06,-0.040
6.50000E-06,-0.040
6.51000E-06,0.000
6.52000E-06,-0.080
6.53000E-06,-0.080
6.54000E-06,-0.080
6.55000E-06,-0.080
6.56000E-06,-0.120
6.57000E-06,-0.080
6.58000E-06,-0.040
6.59000E-06,-0.080
6.60000E-06,-0.080
6.61000E-06,-0.040
6.62000E-06,-0.040
6.63000E-06,-0.040
6.64000E-06,-0.120
6.65000E-06,-0.080
6.66000E-06,-0.040
6.67000E-06,-0.040
6.68000E-06,-0.040
6.69000E-06,-0.080
6.70000E-06,-0.080
6.71000E-06,-0.080
6.72000E-06,0.000
6.73000E-06,-0.040
6.74000E-06,-0.080
6.75000E-06,-0.040
6.76000E-06,-0.040
6.77000E-06,-0.040
6.78000E-06,-0.040
6.79000E-06,0.000
6.80000E-06,-0.040
6.81000E-06,-0.080
6.82000E-06,-0.080
6.83000E-06,-0.040
6.84000E-06,-0.080
6.85000E-06,-0.040
6.86000E-06,-0.080
6.87000E-06,-0.080
6.88000E-06,-0.080
6.89000E-06,-0.080
6.90000E-06,-0.080
6.91000E-06,-0.080
6.92000E-06,-0.080
6.93000E-06,-0.040
6.94000E-06,-0.080
6.95000E-06,-0.080
6.96000E-06,-0.080
6.97000E-06,-0.080
6.98000E-06,-0.080
6.99000E-06,-0.080
7.00000E-06,-0.080
7.01000E-06,-0.040
7.02000E-06,-0.080
7.03000E-06,-0.080
7.04000E-06,-0.080
7.05000E-06,-0.120
7.06000E-06,-0.040
7.07000E-06,-0.040
7.08000E-06,-0.080
7.09000E-06,-0.080
7.10000E-06,-0.080
7.11000E-06,-0.080
7.12000E-06,-0.080
7.13000E-06,-0.080
7.14000E-06,-0.080
7.15000E-06,-0.080
7.16000E-06,-0.040
7.17000E-06,-0.080
7.18000E-06,0.000
7.19000E-06,-0.080
7.20000E-06,-0.040
7.21000E-06,-0.080
7.22000E-06,-0.120
7.23000E-06,-0.080
7.24000E-06,-0.080
7.25000E-06,-0.080
7.26000E-06,-0.080
7.27000E-06,-0.080
7.28000E-06,-0.080
7.29000E-06,-0.080
7.30000E-06,-0.080
7.31000E-06,-0.080
7.32000E-06,-0.120
7.33000E-06,-0.120
7.34000E-06,-0.080
7.35000E-06,-0.040
7.36000E-06,-0.080
7.37000E-06,-0.120
7.38000E-06,-0.120
7.39000E-06,-0.120
7.40000E-06,-0.040
7.41000E-06,-0.040
7.42000E-06,-0.080
7.43000E-06,-0.080
7.44000E-06,-0.080
7.45000E-06,-0.040
7.46000E-06,0.000
7.47000E-06,-0.080
7.48000E-06,-0.080
7.49000E-06,-0.080
7.50000E-06,-0.080
7.51000E-06,-0.080
7.52000E-06,-0.040
7.53000E-06,-0.080
7.54000E-06,-0.080
7.55000E-06,-0.080
7.56000E-06,-0.080
7.57000E-06,-0.080
7.58000E-06,-0.040
7.59000E-06,-0.040
7.60000E-06,-0.040
7.61000E-06,-0.080
7.62000E-06,-0.080
7.63000E-06,-0.080
7.64000E-06,-0.040
7.65000E-06,-0.080
7.66000E-06,-0.080
7.67000E-06,-0.080
7.68000E-06,-0.080
7.69000E-06,-0.080
7.70000E-06,-0.120
7.71000E-06,-0.080
7.72000E-06,-0.120
7.73000E-06,-0.120
7.74000E-06,-0.080
7.75000E-06,-0.080
7.76000E-06,-0.040
7.77000E-06,-0.040
7.78000E-06,-0.040
7.79000E-06,-0.040
7.80000E-06,-0.040
7.81000E-06,-0.080
7.82000E-06,-0.080
7.83000E-06,-0.040
7.84000E-06,-0.080
7.85000E-06,-0.080
7.86000E-06,-0.080
7.87000E-06,-0.080
7.88000E-06,-0.080
7.89000E-06,-0.120
7.90000E-06,-0.040
7.91000E-06,-0.040
7.92000E-06,0.480
7.93000E-06,1.400
7.94000E-06,2.000
7.95000E-06,2.400
7.96000E-06,2.720
7.97000E-06,2.880
7.98000E-06,3.000
7.99000E-06,3.120
8.00000E-06,3.160
8.01000E-06,3.160
8.02000E-06,3.200
8.03000E-06,3.160
8.04000E-06,3.200
8.05000E-06,3.200
8.06000E-06,3.240
8.07000E-06,3.240
8.08000E-06,3.240
8.09000E-06,3.280
8.10000E-06,3.200
8.11000E-06,3.240
8.12000E-06,3.200
8.13000E-06,3.240
8.14000E-06,3.240
8.15000E-06,3.200
8.16000E-06,3.280
8.17000E-06,3.280
8.18000E-06,3.240
8.19000E-06,3.240
8.20000E-06,3.240
8.21000E-06,3.240
8.22000E-06,3.240
8.23000E-06,3.200
8.24000E-06,3.280
8.25000E-06,3.200
8.26000E-06,3.240
8.27000E-06,3.240
8.28000E-06,3.280
8.29000E-06,3.240
8.30000E-06,3.320
8.31000E-06,3.320
8.32000E-06,3.280
8.33000E-06,3.240
8.34000E-06,3.280
8.35000E-06,3.240
8.36000E-06,3.240
8.37000E-06,3.280
8.38000E-06,3.360
8.39000E-06,3.200
8.40000E-06,3.280
8.41000E-06,3.240
8.42000E-06,3.200
8.43000E-06,3.240
8.44000E-06,3.200
8.45000E-06,3.240
8.46000E-06,3.280
8.47000E-06,3.320
8.48000E-06,3.240
8.49000E-06,3.320
8.50000E-06,3.320
8.51000E-06,3.280
8.52000E-06,3.200
8.53000E-06,3.320
8.54000E-06,3.320
8.55000E-06,3.280
8.56000E-06,3.280
8.57000E-06,3.240
8.58000E-06,3.280
8.59000E-06,3.200
8.60000E-06,3.240
8.61000E-06,3.320
8.62000E-06,3.280
8.63000E-06,3.240
8.64000E-06,3.240
8.65000E-06,3.200
8.66000E-06,3.320
8.67000E-06,3.240
8.68000E-06,3.320
8.69000E-06,3.240
8.70000E-06,3.280
8.71000E-06,3.320
8.72000E-06,3.360
8.73000E-06,3.280
8.74000E-06,3.240
8.75000E-06,3.280
8.76000E-06,3.320
8.77000E-06,3.320
8.78000E-06,3.280
8.79000E-06,3.240
8.80000E-06,3.360
8.81000E-06,3.280
8.82000E-06,3.280
8.83000E-06,3.320
8.84000E-06,3.240
8.85000E-06,3.280
8.86000E-06,3.240
8.87000E-06,3.240
8.88000E-06,3.320
8.89000E-06,3.360
8.90000E-06,3.240
8.91000E-06,3.360
8.92000E-06,3.320
8.93000E-06,3.280
8.94000E-06,3.280
8.95000E-06,3.240
8.96000E-06,3.360
8.97000E-06,3.280
8.98000E-06,3.240
8.99000E-06,3.320
9.00000E-06,3.320
9.01000E-06,3.320
9.02000E-06,3.280
9.03000E-06,3.280
9.04000E-06,3.320
9.05000E-06,3.280
9.06000E-06,3.280
9.07000E-06,3.360
9.08000E-06,3.240
9.09000E-06,3.320
9.10000E-06,3.320
9.11000E-06,3.240
9.12000E-06,3.280
9.13000E-06,3.280
9.14000E-06,3.280
9.15000E-06,3.280
9.16000E-06,3.280
9.17000E-06,3.280
9.18000E-06,3.240
9.19000E-06,3.280
9.20000E-06,3.280
9.21000E-06,3.280
9.22000E-06,3.280
9.23000E-06,3.320
9.24000E-06,3.360
9.25000E-06,3.240
9.26000E-06,3.280
9.27000E-06,3.360
9.28000E-06,3.240
9.29000E-06,3.280
9.30000E-06,3.320
9.31000E-06,3.280
9.32000E-06,3.200
9.33000E-06,3.240
9.34000E-06,3.280
9.35000E-06,3.240
9.36000E-06,3.280
9.37000E-06,3.280
9.38000E-06,3.280
9.39000E-06,3.320
9.40000E-06,3.320
9.41000E-06,3.240
9.42000E-06,3.280
9.43000E-06,3.320
9.44000E-06,3.280
9.45000E-06,3.280
9.46000E-06,3.280
9.47000E-06,3.320
9.48000E-06,3.320
9.49000E-06,3.280
9.50000E-06,3.280
9.51000E-06,3.280
9.52000E-06,3.320
9.53000E-06,3.280
9.54000E-06,3.240
9.55000E-06,3.280
9.56000E-06,3.320
9.57000E-06,3.280
9.58000E-06,3.280
9.59000E-06,3.320
9.60000E-06,3.280
9.61000E-06,3.280
9.62000E-06,3.320
9.63000E-06,3.320
9.64000E-06,3.280
9.65000E-06,3.280
9.66000E-06,3.320
9.67000E-06,3.320
9.68000E-06,3.240
9.69000E-06,3.240
9.70000E-06,3.280
9.71000E-06,3.280
9.72000E-06,3.320
9.73000E-06,3.240
9.74000E-06,3.320
9.75000E-06,3.320
9.76000E-06,3.240
9.77000E-06,3.280
9.78000E-06,3.320
9.79000E-06,3.240
9.80000E-06,3.320
9.81000E-06,3.320
9.82000E-06,3.280
9.83000E-06,3.280
9.84000E-06,3.240
9.85000E-06,3.320
9.86000E-06,3.320
9.87000E-06,3.360
9.88000E-06,3.360
9.89000E-06,3.280
9.90000E-06,3.280
9.91000E-06,3.320
9.92000E-06,3.360
9.93000E-06,3.200
9.94000E-06,3.320
9.95000E-06,3.360
9.96000E-06,2.520
9.97000E-06,1.680
9.98000E-06,1.040
9.99000E-06,0.720
1.00000E-05,0.520
1.00100E-05,0.280
1.00200E-05,0.160
1.00300E-05,0.120
1.00400E-05,0.080
1.00500E-05,0.120
1.00600E-05,0.080
1.00700E-05,0.080
1.00800E-05,0.040
1.00900E-05,0.040
1.01000E-05,0.000
1.01100E-05,0.080
1.01200E-05,0.040
1.01300E-05,0.040
1.01400E-05,0.000
1.01500E-05,0.000
1.01600E-05,-0.040
1.01700E-05,-0.040
1.01800E-05,0.000
1.01900E-05,0.040
1.02000E-05,-0.040
1.02100E-05,0.040
1.02200E-05,0.000
1.02300E-05,0.080
1.02400E-05,-0.040
1.02500E-05,0.000
1.02600E-05,0.000
1.02700E-05,-0.040
1.02800E-05,-0.040
1.02900E-05,-0.040
1.03000E-05,0.000
1.03100E-05,0.000
1.03200E-05,-0.080
1.03300E-05,-0.120
1.03400E-05,0.040
1.03500E-05,0.040
1.03600E-05,-0.040
1.03700E-05,-0.040
1.03800E-05,0.000
1.03900E-05,-0.040
1.04000E-05,-0.040
1.04100E-05,0.040
1.04200E-05,-0.080
1.04300E-05,-0.080
1.04400E-05,-0.080
1.04500E-05,-0.080
1.04600E-05,-0.080
1.04700E-05,-0.080
1.04800E-05,0.040
1.04900E-05,-0.040
1.05000E-05,-0.040
1.05100E-05,0.000
1.05200E-05,-0.040
1.05300E-05,-0.040
1.05400E-05,-0.040
1.05500E-05,-0.040
1.05600E-05,-0.040
1.05700E-05,-0.040
1.05800E-05,-0.080
1.05900E-05,0.000
1.06000E-05,-0.040
1.06100E-05,-0.040
1.06200E-05,-0.040
1.06300E-05,-0.040
1.06400E-05,-0.040
1.06500E-05,-0.080
1.06600E-05,0.000
1.06700E-05,0.000
1.06800E-05,-0.040
1.06900E-05,-0.040
1.07000E-05,-0.080
1.07100E-05,-0.040
1.07200E-05,0.000
1.07300E-05,-0.040
