scripts/decoder_tests/spi/waves/4k/spi_10000hz_100spc_CH2.csv

#timebase=200000000(ns)
,#voltbase=1000000(mv/100)
#size=4064
1.00000E-06,-0.040
2.00000E-06,-0.040
3.00000E-06,0.000
4.00000E-06,0.000
5.00000E-06,0.000
6.00000E-06,0.000
7.00000E-06,0.040
8.00000E-06,0.000
9.00000E-06,0.000
1.00000E-05,0.000
1.10000E-05,0.000
1.20000E-05,0.000
1.30000E-05,0.000
1.40000E-05,0.000
1.50000E-05,0.000
1.60000E-05,0.000
1.70000E-05,0.040
1.80000E-05,0.080
1.90000E-05,0.080
2.00000E-05,0.040
2.10000E-05,0.040
2.20000E-05,0.040
2.30000E-05,0.080
2.40000E-05,-0.040
2.50000E-05,-0.040
2.60000E-05,0.000
2.70000E-05,-0.040
2.80000E-05,0.040
2.90000E-05,-0.040
3.00000E-05,-0.040
3.10000E-05,0.000
3.20000E-05,-0.040
3.30000E-05,0.040
3.40000E-05,0.000
3.50000E-05,0.000
3.60000E-05,0.000
3.70000E-05,0.000
3.80000E-05,0.040
3.90000E-05,0.000
4.00000E-05,0.040
4.10000E-05,-0.040
4.20000E-05,0.000
4.30000E-05,0.000
4.40000E-05,0.000
4.50000E-05,0.000
4.60000E-05,-0.040
4.70000E-05,-0.040
4.80000E-05,0.000
4.90000E-05,0.040
5.00000E-05,-0.040
5.10000E-05,0.000
5.20000E-05,-0.040
5.30000E-05,0.040
5.40000E-05,0.000
5.50000E-05,0.000
5.60000E-05,0.000
5.70000E-05,0.000
5.80000E-05,0.000
5.90000E-05,-0.040
6.00000E-05,0.000
6.10000E-05,0.000
6.20000E-05,0.000
6.30000E-05,0.000
6.40000E-05,0.000
6.50000E-05,0.000
6.60000E-05,0.040
6.70000E-05,0.080
6.80000E-05,0.080
6.90000E-05,0.040
7.00000E-05,0.040
7.10000E-05,0.040
7.20000E-05,-0.040
7.30000E-05,0.040
7.40000E-05,0.040
7.50000E-05,0.080
7.60000E-05,0.040
7.70000E-05,0.040
7.80000E-05,0.040
7.90000E-05,0.000
8.00000E-05,-0.040
8.10000E-05,0.000
8.20000E-05,3.320
8.30000E-05,3.320
8.40000E-05,3.320
8.50000E-05,3.360
8.60000E-05,3.320
8.70000E-05,3.320
8.80000E-05,3.360
8.90000E-05,3.360
9.00000E-05,3.360
9.10000E-05,3.400
9.20000E-05,3.320
9.30000E-05,3.360
9.40000E-05,3.320
9.50000E-05,3.400
9.60000E-05,3.360
9.70000E-05,3.360
9.80000E-05,3.400
9.90000E-05,3.360
1.00000E-04,3.360
1.01000E-04,3.360
1.02000E-04,3.360
1.03000E-04,3.400
1.04000E-04,3.320
1.05000E-04,3.360
1.06000E-04,3.400
1.07000E-04,3.400
1.08000E-04,3.360
1.09000E-04,3.320
1.10000E-04,3.360
1.11000E-04,3.320
1.12000E-04,3.320
1.13000E-04,3.320
1.14000E-04,3.400
1.15000E-04,3.400
1.16000E-04,3.320
1.17000E-04,3.320
1.18000E-04,3.360
1.19000E-04,3.320
1.20000E-04,3.400
1.21000E-04,3.400
1.22000E-04,3.360
1.23000E-04,3.360
1.24000E-04,3.400
1.25000E-04,3.360
1.26000E-04,3.400
1.27000E-04,3.360
1.28000E-04,3.360
1.29000E-04,3.360
1.30000E-04,3.400
1.31000E-04,3.360
1.32000E-04,3.360
1.33000E-04,3.360
1.34000E-04,3.320
1.35000E-04,3.360
1.36000E-04,3.400
1.37000E-04,3.320
1.38000E-04,3.320
1.39000E-04,3.400
1.40000E-04,3.360
1.41000E-04,3.360
1.42000E-04,3.320
1.43000E-04,3.320
1.44000E-04,3.320
1.45000E-04,3.360
1.46000E-04,3.360
1.47000E-04,3.360
1.48000E-04,3.320
1.49000E-04,3.360
1.50000E-04,3.320
1.51000E-04,3.400
1.52000E-04,3.360
1.53000E-04,3.360
1.54000E-04,3.320
1.55000E-04,3.360
1.56000E-04,3.360
1.57000E-04,3.360
1.58000E-04,3.360
1.59000E-04,3.360
1.60000E-04,3.360
1.61000E-04,3.320
1.62000E-04,3.360
1.63000E-04,3.400
1.64000E-04,3.360
1.65000E-04,3.360
1.66000E-04,3.360
1.67000E-04,3.360
1.68000E-04,3.360
1.69000E-04,3.360
1.70000E-04,3.400
1.71000E-04,3.400
1.72000E-04,3.320
1.73000E-04,3.320
1.74000E-04,3.360
1.75000E-04,3.360
1.76000E-04,3.360
1.77000E-04,3.360
1.78000E-04,3.320
1.79000E-04,3.360
1.80000E-04,3.440
1.81000E-04,3.360
1.82000E-04,3.320
1.83000E-04,3.400
1.84000E-04,3.360
1.85000E-04,3.400
1.86000E-04,3.320
1.87000E-04,3.320
1.88000E-04,3.360
1.89000E-04,3.320
1.90000E-04,3.400
1.91000E-04,3.360
1.92000E-04,3.360
1.93000E-04,3.320
1.94000E-04,3.400
1.95000E-04,3.320
1.96000E-04,3.400
1.97000E-04,3.400
1.98000E-04,3.360
1.99000E-04,3.360
2.00000E-04,3.360
2.01000E-04,3.360
2.02000E-04,3.400
2.03000E-04,3.400
2.04000E-04,3.360
2.05000E-04,3.360
2.06000E-04,3.400
2.07000E-04,3.360
2.08000E-04,3.360
2.09000E-04,3.320
2.10000E-04,3.360
2.11000E-04,3.440
2.12000E-04,3.440
2.13000E-04,3.360
2.14000E-04,3.360
2.15000E-04,3.360
2.16000E-04,3.400
2.17000E-04,3.360
2.18000E-04,3.320
2.19000E-04,3.320
2.20000E-04,3.360
2.21000E-04,3.360
2.22000E-04,3.400
2.23000E-04,3.400
2.24000E-04,3.360
2.25000E-04,3.320
2.26000E-04,3.360
2.27000E-04,3.360
2.28000E-04,3.360
2.29000E-04,3.360
2.30000E-04,3.320
2.31000E-04,3.360
2.32000E-04,3.360
2.33000E-04,3.360
2.34000E-04,3.360
2.35000E-04,3.400
2.36000E-04,3.400
2.37000E-04,3.320
2.38000E-04,3.320
2.39000E-04,3.360
2.40000E-04,3.320
2.41000E-04,3.360
2.42000E-04,3.360
2.43000E-04,3.360
2.44000E-04,3.320
2.45000E-04,3.320
2.46000E-04,3.360
2.47000E-04,3.360
2.48000E-04,3.360
2.49000E-04,3.360
2.50000E-04,3.360
2.51000E-04,3.360
2.52000E-04,3.360
2.53000E-04,3.360
2.54000E-04,3.360
2.55000E-04,3.400
2.56000E-04,3.360
2.57000E-04,3.360
2.58000E-04,3.360
2.59000E-04,3.320
2.60000E-04,3.400
2.61000E-04,3.400
2.62000E-04,3.320
2.63000E-04,3.400
2.64000E-04,3.320
2.65000E-04,3.320
2.66000E-04,3.360
2.67000E-04,3.360
2.68000E-04,3.360
2.69000E-04,3.360
2.70000E-04,3.440
2.71000E-04,3.360
2.72000E-04,3.360
2.73000E-04,3.400
2.74000E-04,3.360
2.75000E-04,3.360
2.76000E-04,3.360
2.77000E-04,3.360
2.78000E-04,3.360
2.79000E-04,3.400
2.80000E-04,3.360
2.81000E-04,3.440
2.82000E-04,3.360
2.83000E-04,3.320
2.84000E-04,3.320
2.85000E-04,3.400
2.86000E-04,3.360
2.87000E-04,3.320
2.88000E-04,3.400
2.89000E-04,3.360
2.90000E-04,3.360
2.91000E-04,3.360
2.92000E-04,3.320
2.93000E-04,3.320
2.94000E-04,3.360
2.95000E-04,3.320
2.96000E-04,3.360
2.97000E-04,3.360
2.98000E-04,3.360
2.99000E-04,3.360
3.00000E-04,3.400
3.01000E-04,3.360
3.02000E-04,3.360
3.03000E-04,3.360
3.04000E-04,3.360
3.05000E-04,3.400
3.06000E-04,3.360
3.07000E-04,3.400
3.08000E-04,3.320
3.09000E-04,3.360
3.10000E-04,3.400
3.11000E-04,3.400
3.12000E-04,3.360
3.13000E-04,3.320
3.14000E-04,3.400
3.15000E-04,3.360
3.16000E-04,3.360
3.17000E-04,3.400
3.18000E-04,3.400
3.19000E-04,3.320
3.20000E-04,3.320
3.21000E-04,3.360
3.22000E-04,3.360
3.23000E-04,3.360
3.24000E-04,3.400
3.25000E-04,3.400
3.26000E-04,3.320
3.27000E-04,3.320
3.28000E-04,3.400
3.29000E-04,3.400
3.30000E-04,3.360
3.31000E-04,3.400
3.32000E-04,3.400
3.33000E-04,3.360
3.34000E-04,3.360
3.35000E-04,3.320
3.36000E-04,3.360
3.37000E-04,3.360
3.38000E-04,3.360
3.39000E-04,3.360
3.40000E-04,3.400
3.41000E-04,3.360
3.42000E-04,3.360
3.43000E-04,3.320
3.44000E-04,3.400
3.45000E-04,3.360
3.46000E-04,3.360
3.47000E-04,3.360
3.48000E-04,3.320
3.49000E-04,3.400
3.50000E-04,3.320
3.51000E-04,3.360
3.52000E-04,3.360
3.53000E-04,3.360
3.54000E-04,3.400
3.55000E-04,3.400
3.56000E-04,3.320
3.57000E-04,3.360
3.58000E-04,3.360
3.59000E-04,3.360
3.60000E-04,3.400
3.61000E-04,3.360
3.62000E-04,3.320
3.63000E-04,3.320
3.64000E-04,3.320
3.65000E-04,3.360
3.66000E-04,3.320
3.67000E-04,3.400
3.68000E-04,3.400
3.69000E-04,3.360
3.70000E-04,3.360
3.71000E-04,3.360
3.72000E-04,3.360
3.73000E-04,3.400
3.74000E-04,3.400
3.75000E-04,3.320
3.76000E-04,3.400
3.77000E-04,3.360
3.78000E-04,3.360
3.79000E-04,3.360
3.80000E-04,3.360
3.81000E-04,3.360
3.82000E-04,0.040
3.83000E-04,0.080
3.84000E-04,0.040
3.85000E-04,0.040
3.86000E-04,0.040
3.87000E-04,-0.040
3.88000E-04,0.000
3.89000E-04,0.000
3.90000E-04,0.000
3.91000E-04,0.000
3.92000E-04,-0.040
3.93000E-04,0.000
3.94000E-04,-0.040
3.95000E-04,0.000
3.96000E-04,-0.040
3.97000E-04,0.000
3.98000E-04,0.000
3.99000E-04,0.000
4.00000E-04,0.000
4.01000E-04,0.040
4.02000E-04,0.000
4.03000E-04,-0.040
4.04000E-04,0.000
4.05000E-04,-0.040
4.06000E-04,-0.040
4.07000E-04,0.000
4.08000E-04,0.080
4.09000E-04,-0.080
4.10000E-04,-0.040
4.11000E-04,-0.040
4.12000E-04,0.000
4.13000E-04,-0.040
4.14000E-04,0.040
4.15000E-04,-0.040
4.16000E-04,0.000
4.17000E-04,-0.040
4.18000E-04,0.000
4.19000E-04,0.000
4.20000E-04,0.000
4.21000E-04,0.000
4.22000E-04,0.000
4.23000E-04,0.000
4.24000E-04,0.000
4.25000E-04,0.000
4.26000E-04,0.000
4.27000E-04,0.000
4.28000E-04,0.000
4.29000E-04,0.040
4.30000E-04,-0.040
4.31000E-04,-0.040
4.32000E-04,0.000
4.33000E-04,-0.040
4.34000E-04,0.000
4.35000E-04,0.000
4.36000E-04,0.000
4.37000E-04,0.000
4.38000E-04,0.000
4.39000E-04,0.040
4.40000E-04,0.000
4.41000E-04,-0.040
4.42000E-04,-0.040
4.43000E-04,0.000
4.44000E-04,-0.040
4.45000E-04,0.040
4.46000E-04,-0.040
4.47000E-04,0.000
4.48000E-04,0.040
4.49000E-04,0.040
4.50000E-04,-0.040
4.51000E-04,0.000
4.52000E-04,0.000
4.53000E-04,0.000
4.54000E-04,-0.040
4.55000E-04,0.000
4.56000E-04,-0.040
4.57000E-04,0.000
4.58000E-04,0.000
4.59000E-04,0.000
4.60000E-04,0.000
4.61000E-04,0.000
4.62000E-04,0.040
4.63000E-04,-0.040
4.64000E-04,-0.040
4.65000E-04,0.000
4.66000E-04,-0.040
4.67000E-04,-0.040
4.68000E-04,0.000
4.69000E-04,0.040
4.70000E-04,0.040
4.71000E-04,-0.040
4.72000E-04,-0.040
4.73000E-04,0.000
4.74000E-04,0.000
4.75000E-04,0.000
4.76000E-04,0.000
4.77000E-04,0.040
4.78000E-04,0.000
4.79000E-04,0.000
4.80000E-04,0.000
4.81000E-04,0.000
4.82000E-04,3.320
4.83000E-04,3.280
4.84000E-04,3.320
4.85000E-04,3.360
4.86000E-04,3.360
4.87000E-04,3.360
4.88000E-04,3.360
4.89000E-04,3.320
4.90000E-04,3.400
4.91000E-04,3.360
4.92000E-04,3.360
4.93000E-04,3.400
4.94000E-04,3.320
4.95000E-04,3.360
4.96000E-04,3.320
4.97000E-04,3.400
4.98000E-04,3.360
4.99000E-04,3.360
5.00000E-04,3.360
5.01000E-04,3.320
5.02000E-04,3.360
5.03000E-04,3.400
5.04000E-04,3.320
5.05000E-04,3.360
5.06000E-04,3.400
5.07000E-04,3.360
5.08000E-04,3.320
5.09000E-04,3.360
5.10000E-04,3.360
5.11000E-04,3.360
5.12000E-04,3.360
5.13000E-04,3.360
5.14000E-04,3.360
5.15000E-04,3.360
5.16000E-04,3.360
5.17000E-04,3.320
5.18000E-04,3.360
5.19000E-04,3.360
5.20000E-04,3.360
5.21000E-04,3.360
5.22000E-04,3.320
5.23000E-04,3.400
5.24000E-04,3.320
5.25000E-04,3.320
5.26000E-04,3.320
5.27000E-04,3.400
5.28000E-04,3.400
5.29000E-04,3.320
5.30000E-04,3.320
5.31000E-04,3.360
5.32000E-04,3.360
5.33000E-04,3.320
5.34000E-04,3.320
5.35000E-04,3.360
5.36000E-04,3.360
5.37000E-04,3.400
5.38000E-04,3.320
5.39000E-04,3.320
5.40000E-04,3.360
5.41000E-04,3.360
5.42000E-04,3.440
5.43000E-04,3.320
5.44000E-04,3.320
5.45000E-04,3.400
5.46000E-04,3.400
5.47000E-04,3.360
5.48000E-04,3.320
5.49000E-04,3.360
5.50000E-04,3.320
5.51000E-04,3.400
5.52000E-04,3.400
5.53000E-04,3.360
5.54000E-04,3.400
5.55000E-04,3.400
5.56000E-04,3.360
5.57000E-04,3.360
5.58000E-04,3.400
5.59000E-04,3.360
5.60000E-04,3.360
5.61000E-04,3.360
5.62000E-04,3.320
5.63000E-04,3.400
5.64000E-04,3.400
5.65000E-04,3.360
5.66000E-04,3.360
5.67000E-04,3.360
5.68000E-04,3.360
5.69000E-04,3.360
5.70000E-04,3.320
5.71000E-04,3.320
5.72000E-04,3.360
5.73000E-04,3.360
5.74000E-04,3.360
5.75000E-04,3.360
5.76000E-04,3.360
5.77000E-04,3.320
5.78000E-04,3.360
5.79000E-04,3.400
5.80000E-04,3.320
5.81000E-04,3.320
5.82000E-04,0.080
5.83000E-04,0.080
5.84000E-04,0.080
5.85000E-04,0.040
5.86000E-04,0.080
5.87000E-04,0.040
5.88000E-04,0.000
5.89000E-04,0.000
5.90000E-04,0.000
5.91000E-04,-0.040
5.92000E-04,0.000
5.93000E-04,0.000
5.94000E-04,0.040
5.95000E-04,0.000
5.96000E-04,-0.040
5.97000E-04,0.000
5.98000E-04,0.040
5.99000E-04,0.040
6.00000E-04,0.080
6.01000E-04,-0.040
6.02000E-04,0.000
6.03000E-04,0.000
6.04000E-04,0.000
6.05000E-04,0.000
6.06000E-04,0.000
6.07000E-04,0.000
6.08000E-04,0.000
6.09000E-04,0.000
6.10000E-04,0.040
6.11000E-04,0.040
6.12000E-04,0.040
6.13000E-04,0.080
6.14000E-04,0.040
6.15000E-04,-0.040
6.16000E-04,0.000
6.17000E-04,0.000
6.18000E-04,0.000
6.19000E-04,0.000
6.20000E-04,-0.040
6.21000E-04,0.000
6.22000E-04,0.040
6.23000E-04,0.040
6.24000E-04,-0.040
6.25000E-04,-0.040
6.26000E-04,0.040
6.27000E-04,0.000
6.28000E-04,0.000
6.29000E-04,0.000
6.30000E-04,0.000
6.31000E-04,-0.040
6.32000E-04,0.000
6.33000E-04,0.000
6.34000E-04,0.000
6.35000E-04,0.000
6.36000E-04,0.000
6.37000E-04,0.000
6.38000E-04,0.000
6.39000E-04,0.000
6.40000E-04,0.000
6.41000E-04,0.000
6.42000E-04,-0.040
6.43000E-04,-0.040
6.44000E-04,0.040
6.45000E-04,0.040
6.46000E-04,0.000
6.47000E-04,0.040
6.48000E-04,0.000
6.49000E-04,0.000
6.50000E-04,0.000
6.51000E-04,0.000
6.52000E-04,0.000
6.53000E-04,0.040
6.54000E-04,0.040
6.55000E-04,-0.040
6.56000E-04,0.000
6.57000E-04,0.000
6.58000E-04,0.000
6.59000E-04,-0.040
6.60000E-04,0.000
6.61000E-04,-0.040
6.62000E-04,0.000
6.63000E-04,-0.040
6.64000E-04,0.000
6.65000E-04,0.000
6.66000E-04,0.000
6.67000E-04,-0.040
6.68000E-04,0.040
6.69000E-04,0.080
6.70000E-04,0.080
6.71000E-04,0.040
6.72000E-04,-0.040
6.73000E-04,0.040
6.74000E-04,0.040
6.75000E-04,0.080
6.76000E-04,-0.040
6.77000E-04,-0.040
6.78000E-04,0.000
6.79000E-04,-0.040
6.80000E-04,0.000
6.81000E-04,0.000
6.82000E-04,0.000
6.83000E-04,0.000
6.84000E-04,-0.040
6.85000E-04,-0.040
6.86000E-04,0.000
6.87000E-04,0.040
6.88000E-04,0.040
6.89000E-04,-0.080
6.90000E-04,-0.040
6.91000E-04,-0.040
6.92000E-04,0.000
6.93000E-04,-0.040
6.94000E-04,0.000
6.95000E-04,0.000
6.96000E-04,0.000
6.97000E-04,0.040
6.98000E-04,-0.040
6.99000E-04,0.000
7.00000E-04,-0.040
7.01000E-04,0.000
7.02000E-04,-0.040
7.03000E-04,0.040
7.04000E-04,0.000
7.05000E-04,0.040
7.06000E-04,0.000
7.07000E-04,0.000
7.08000E-04,0.000
7.09000E-04,0.000
7.10000E-04,0.000
7.11000E-04,0.040
7.12000E-04,0.080
7.13000E-04,0.040
7.14000E-04,-0.040
7.15000E-04,0.040
7.16000E-04,0.000
7.17000E-04,-0.040
7.18000E-04,0.040
7.19000E-04,0.000
7.20000E-04,0.040
7.21000E-04,0.000
7.22000E-04,0.000
7.23000E-04,0.000
7.24000E-04,0.000
7.25000E-04,0.080
7.26000E-04,0.040
7.27000E-04,-0.040
7.28000E-04,0.000
7.29000E-04,0.000
7.30000E-04,0.000
7.31000E-04,0.040
7.32000E-04,0.040
7.33000E-04,-0.040
7.34000E-04,0.000
7.35000E-04,0.040
7.36000E-04,0.040
7.37000E-04,-0.040
7.38000E-04,-0.040
7.39000E-04,0.000
7.40000E-04,0.000
7.41000E-04,0.040
7.42000E-04,0.000
7.43000E-04,-0.040
7.44000E-04,-0.040
7.45000E-04,0.000
7.46000E-04,-0.040
7.47000E-04,0.000
7.48000E-04,0.040
7.49000E-04,0.000
7.50000E-04,0.000
7.51000E-04,0.000
7.52000E-04,0.000
7.53000E-04,0.040
7.54000E-04,-0.040
7.55000E-04,0.040
7.56000E-04,0.000
7.57000E-04,0.040
7.58000E-04,0.040
7.59000E-04,-0.040
7.60000E-04,0.000
7.61000E-04,0.040
7.62000E-04,0.000
7.63000E-04,0.000
7.64000E-04,0.080
7.65000E-04,0.040
7.66000E-04,0.040
7.67000E-04,-0.040
7.68000E-04,-0.040
7.69000E-04,0.000
7.70000E-04,0.040
7.71000E-04,-0.040
7.72000E-04,0.000
7.73000E-04,0.000
7.74000E-04,0.000
7.75000E-04,0.040
7.76000E-04,0.040
7.77000E-04,0.080
7.78000E-04,0.040
7.79000E-04,0.040
7.80000E-04,-0.040
7.81000E-04,0.000
7.82000E-04,0.040
7.83000E-04,-0.040
7.84000E-04,0.040
7.85000E-04,0.000
7.86000E-04,-0.040
7.87000E-04,0.040
7.88000E-04,0.080
7.89000E-04,0.040
7.90000E-04,-0.040
7.91000E-04,0.000
7.92000E-04,0.040
7.93000E-04,0.000
7.94000E-04,0.040
7.95000E-04,0.040
7.96000E-04,0.040
7.97000E-04,-0.040
7.98000E-04,0.000
7.99000E-04,-0.040
8.00000E-04,-0.040
8.01000E-04,0.000
8.02000E-04,0.040
8.03000E-04,-0.040
8.04000E-04,0.000
8.05000E-04,0.040
8.06000E-04,0.040
8.07000E-04,0.000
8.08000E-04,0.000
8.09000E-04,0.000
8.10000E-04,0.000
8.11000E-04,0.040
8.12000E-04,0.000
8.13000E-04,0.000
8.14000E-04,0.000
8.15000E-04,0.000
8.16000E-04,0.000
8.17000E-04,0.000
8.18000E-04,0.000
8.19000E-04,0.040
8.20000E-04,-0.040
8.21000E-04,0.000
8.22000E-04,0.040
8.23000E-04,0.040
8.24000E-04,0.040
8.25000E-04,-0.040
8.26000E-04,0.000
8.27000E-04,0.000
8.28000E-04,0.000
8.29000E-04,0.000
8.30000E-04,-0.040
8.31000E-04,0.000
8.32000E-04,0.000
8.33000E-04,0.000
8.34000E-04,0.040
8.35000E-04,0.000
8.36000E-04,0.000
8.37000E-04,0.000
8.38000E-04,-0.040
8.39000E-04,-0.040
8.40000E-04,0.000
8.41000E-04,0.040
8.42000E-04,0.000
8.43000E-04,0.000
8.44000E-04,0.040
8.45000E-04,-0.040
8.46000E-04,0.000
8.47000E-04,0.040
8.48000E-04,-0.040
8.49000E-04,0.000
8.50000E-04,0.040
8.51000E-04,0.000
8.52000E-04,0.000
8.53000E-04,0.000
8.54000E-04,0.040
8.55000E-04,-0.040
8.56000E-04,0.000
8.57000E-04,-0.040
8.58000E-04,-0.040
8.59000E-04,0.000
8.60000E-04,0.040
8.61000E-04,0.040
8.62000E-04,-0.040
8.63000E-04,-0.040
8.64000E-04,0.040
8.65000E-04,-0.040
8.66000E-04,0.040
8.67000E-04,0.000
8.68000E-04,-0.040
8.69000E-04,0.000
8.70000E-04,-0.040
8.71000E-04,-0.040
8.72000E-04,0.040
8.73000E-04,0.080
8.74000E-04,-0.040
8.75000E-04,0.000
8.76000E-04,0.000
8.77000E-04,0.000
8.78000E-04,0.000
8.79000E-04,0.000
8.80000E-04,0.040
8.81000E-04,0.000
8.82000E-04,3.360
8.83000E-04,3.360
8.84000E-04,3.320
8.85000E-04,3.320
8.86000E-04,3.360
8.87000E-04,3.400
8.88000E-04,3.320
8.89000E-04,3.400
8.90000E-04,3.320
8.91000E-04,3.400
8.92000E-04,3.360
8.93000E-04,3.360
8.94000E-04,3.360
8.95000E-04,3.360
8.96000E-04,3.320
8.97000E-04,3.400
8.98000E-04,3.360
8.99000E-04,3.360
9.00000E-04,3.360
9.01000E-04,3.400
9.02000E-04,3.360
9.03000E-04,3.360
9.04000E-04,3.360
9.05000E-04,3.360
9.06000E-04,3.320
9.07000E-04,3.400
9.08000E-04,3.360
9.09000E-04,3.360
9.10000E-04,3.400
9.11000E-04,3.400
9.12000E-04,3.360
9.13000E-04,3.360
9.14000E-04,3.400
9.15000E-04,3.360
9.16000E-04,3.320
9.17000E-04,3.400
9.18000E-04,3.320
9.19000E-04,3.360
9.20000E-04,3.360
9.21000E-04,3.400
9.22000E-04,3.360
9.23000E-04,3.320
9.24000E-04,3.400
9.25000E-04,3.400
9.26000E-04,3.360
9.27000E-04,3.320
9.28000E-04,3.320
9.29000E-04,3.400
9.30000E-04,3.360
9.31000E-04,3.360
9.32000E-04,3.360
9.33000E-04,3.320
9.34000E-04,3.320
9.35000E-04,3.360
9.36000E-04,3.360
9.37000E-04,3.320
9.38000E-04,3.360
9.39000E-04,3.320
9.40000E-04,3.360
9.41000E-04,3.400
9.42000E-04,3.400
9.43000E-04,3.360
9.44000E-04,3.360
9.45000E-04,3.360
9.46000E-04,3.360
9.47000E-04,3.360
9.48000E-04,3.360
9.49000E-04,3.400
9.50000E-04,3.360
9.51000E-04,3.360
9.52000E-04,3.400
9.53000E-04,3.360
9.54000E-04,3.360
9.55000E-04,3.360
9.56000E-04,3.400
9.57000E-04,3.320
9.58000E-04,3.400
9.59000E-04,3.360
9.60000E-04,3.360
9.61000E-04,3.400
9.62000E-04,3.360
9.63000E-04,3.320
9.64000E-04,3.360
9.65000E-04,3.400
9.66000E-04,3.400
9.67000E-04,3.360
9.68000E-04,3.320
9.69000E-04,3.400
9.70000E-04,3.360
9.71000E-04,3.440
9.72000E-04,3.360
9.73000E-04,3.360
9.74000E-04,3.400
9.75000E-04,3.400
9.76000E-04,3.320
9.77000E-04,3.400
9.78000E-04,3.440
9.79000E-04,3.360
9.80000E-04,3.360
9.81000E-04,3.360
9.82000E-04,3.360
9.83000E-04,3.360
9.84000E-04,3.360
9.85000E-04,3.360
9.86000E-04,3.360
9.87000E-04,3.400
9.88000E-04,3.360
9.89000E-04,3.400
9.90000E-04,3.400
9.91000E-04,3.400
9.92000E-04,3.320
9.93000E-04,3.360
9.94000E-04,3.320
9.95000E-04,3.360
9.96000E-04,3.360
9.97000E-04,3.400
9.98000E-04,3.400
9.99000E-04,3.360
1.00000E-03,3.360
1.00100E-03,3.400
1.00200E-03,3.360
1.00300E-03,3.360
1.00400E-03,3.360
1.00500E-03,3.360
1.00600E-03,3.360
1.00700E-03,3.320
1.00800E-03,3.360
1.00900E-03,3.400
1.01000E-03,3.360
1.01100E-03,3.360
1.01200E-03,3.320
1.01300E-03,3.320
1.01400E-03,3.400
1.01500E-03,3.400
1.01600E-03,3.360
1.01700E-03,3.360
1.01800E-03,3.360
1.01900E-03,3.400
1.02000E-03,3.360
1.02100E-03,3.360
1.02200E-03,3.360
1.02300E-03,3.360
1.02400E-03,3.320
1.02500E-03,3.400
1.02600E-03,3.360
1.02700E-03,3.360
1.02800E-03,3.320
1.02900E-03,3.400
1.03000E-03,3.360
1.03100E-03,3.360
1.03200E-03,3.360
1.03300E-03,3.360
1.03400E-03,3.400
1.03500E-03,3.360
1.03600E-03,3.360
1.03700E-03,3.400
1.03800E-03,3.360
1.03900E-03,3.360
1.04000E-03,3.360
1.04100E-03,3.360
1.04200E-03,3.400
1.04300E-03,3.360
1.04400E-03,3.360
1.04500E-03,3.400
1.04600E-03,3.320
1.04700E-03,3.360
1.04800E-03,3.360
1.04900E-03,3.320
1.05000E-03,3.360
1.05100E-03,3.360
1.05200E-03,3.320
1.05300E-03,3.400
1.05400E-03,3.360
1.05500E-03,3.360
1.05600E-03,3.360
1.05700E-03,3.320
1.05800E-03,3.320
1.05900E-03,3.400
1.06000E-03,3.400
1.06100E-03,3.360
1.06200E-03,3.400
1.06300E-03,3.400
1.06400E-03,3.360
1.06500E-03,3.400
1.06600E-03,3.360
1.06700E-03,3.360
1.06800E-03,3.400
1.06900E-03,3.360
1.07000E-03,3.320
1.07100E-03,3.440
1.07200E-03,3.400
1.07300E-03,3.360
1.07400E-03,3.320
1.07500E-03,3.400
1.07600E-03,3.400
1.07700E-03,3.320
1.07800E-03,3.360
1.07900E-03,3.360
1.08000E-03,3.360
1.08100E-03,3.400
1.08200E-03,3.360
1.08300E-03,3.400
1.08400E-03,3.360
1.08500E-03,3.360
1.08600E-03,3.360
1.08700E-03,3.440
1.08800E-03,3.400
1.08900E-03,3.360
1.09000E-03,3.360
1.09100E-03,3.400
1.09200E-03,3.360
1.09300E-03,3.360
1.09400E-03,3.360
1.09500E-03,3.440
1.09600E-03,3.360
1.09700E-03,3.400
1.09800E-03,3.360
1.09900E-03,3.360
1.10000E-03,3.320
1.10100E-03,3.360
