scripts/decoder_tests/uart/waves/4k/uart_9600baud_12spc_CH1.csv

#timebase=2000000000(ns)
,#voltbase=1000000(mv/100)
#size=4064
1.00000E-05,-0.080
2.00000E-05,-0.080
3.00000E-05,-0.080
4.00000E-05,-0.080
5.00000E-05,-0.040
6.00000E-05,0.000
7.00000E-05,0.000
8.00000E-05,-0.040
9.00000E-05,-0.080
1.00000E-04,-0.080
1.10000E-04,-0.080
1.20000E-04,-0.120
1.30000E-04,-0.120
1.40000E-04,-0.120
1.50000E-04,-0.120
1.60000E-04,-0.080
1.70000E-04,-0.040
1.80000E-04,-0.080
1.90000E-04,-0.080
2.00000E-04,-0.080
2.10000E-04,3.320
2.20000E-04,3.360
2.30000E-04,3.320
2.40000E-04,3.320
2.50000E-04,3.320
2.60000E-04,3.360
2.70000E-04,3.360
2.80000E-04,3.320
2.90000E-04,3.320
3.00000E-04,3.320
3.10000E-04,3.320
3.20000E-04,3.320
3.30000E-04,3.320
3.40000E-04,3.320
3.50000E-04,3.360
3.60000E-04,3.360
3.70000E-04,3.360
3.80000E-04,3.320
3.90000E-04,3.320
4.00000E-04,3.320
4.10000E-04,3.360
4.20000E-04,-0.080
4.30000E-04,-0.080
4.40000E-04,-0.040
4.50000E-04,-0.080
4.60000E-04,-0.080
4.70000E-04,-0.160
4.80000E-04,-0.080
4.90000E-04,-0.080
5.00000E-04,-0.080
5.10000E-04,-0.080
5.20000E-04,-0.080
5.30000E-04,-0.120
5.40000E-04,-0.080
5.50000E-04,-0.120
5.60000E-04,-0.080
5.70000E-04,-0.040
5.80000E-04,-0.080
5.90000E-04,-0.080
6.00000E-04,-0.040
6.10000E-04,-0.080
6.20000E-04,-0.120
6.30000E-04,3.360
6.40000E-04,3.320
6.50000E-04,3.320
6.60000E-04,3.360
6.70000E-04,3.320
6.80000E-04,3.360
6.90000E-04,3.360
7.00000E-04,3.320
7.10000E-04,3.320
7.20000E-04,3.360
7.30000E-04,0.000
7.40000E-04,-0.040
7.50000E-04,-0.080
7.60000E-04,-0.120
7.70000E-04,-0.080
7.80000E-04,-0.080
7.90000E-04,-0.040
8.00000E-04,0.000
8.10000E-04,0.000
8.20000E-04,-0.040
8.30000E-04,-0.080
8.40000E-04,3.320
8.50000E-04,3.360
8.60000E-04,3.360
8.70000E-04,3.320
8.80000E-04,3.320
8.90000E-04,3.320
9.00000E-04,3.360
9.10000E-04,3.320
9.20000E-04,3.320
9.30000E-04,3.360
9.40000E-04,3.360
9.50000E-04,3.320
9.60000E-04,3.360
9.70000E-04,3.360
9.80000E-04,3.320
9.90000E-04,3.360
1.00000E-03,3.360
1.01000E-03,3.360
1.02000E-03,3.320
1.03000E-03,3.360
1.04000E-03,3.360
1.05000E-03,-0.080
1.06000E-03,-0.080
1.07000E-03,-0.080
1.08000E-03,-0.080
1.09000E-03,-0.080
1.10000E-03,-0.080
1.11000E-03,-0.080
1.12000E-03,-0.040
1.13000E-03,-0.040
1.14000E-03,-0.040
1.15000E-03,-0.080
1.16000E-03,-0.080
1.17000E-03,-0.120
1.18000E-03,-0.080
1.19000E-03,-0.040
1.20000E-03,-0.080
1.21000E-03,-0.080
1.22000E-03,-0.120
1.23000E-03,-0.080
1.24000E-03,-0.080
1.25000E-03,3.280
1.26000E-03,3.360
1.27000E-03,3.320
1.28000E-03,3.360
1.29000E-03,3.320
1.30000E-03,3.360
1.31000E-03,3.320
1.32000E-03,3.320
1.33000E-03,3.360
1.34000E-03,3.320
1.35000E-03,3.320
1.36000E-03,3.360
1.37000E-03,3.360
1.38000E-03,3.320
1.39000E-03,3.320
1.40000E-03,3.320
1.41000E-03,3.320
1.42000E-03,3.360
1.43000E-03,3.280
1.44000E-03,3.360
1.45000E-03,3.360
1.46000E-03,-0.080
1.47000E-03,-0.120
1.48000E-03,-0.120
1.49000E-03,-0.120
1.50000E-03,-0.080
1.51000E-03,-0.040
1.52000E-03,-0.080
1.53000E-03,-0.040
1.54000E-03,-0.120
1.55000E-03,-0.120
1.56000E-03,-0.080
1.57000E-03,3.360
1.58000E-03,3.320
1.59000E-03,3.320
1.60000E-03,3.360
1.61000E-03,3.320
1.62000E-03,3.360
1.63000E-03,3.320
1.64000E-03,3.360
1.65000E-03,3.320
1.66000E-03,3.360
1.67000E-03,3.320
1.68000E-03,3.360
1.69000E-03,3.360
1.70000E-03,3.360
1.71000E-03,3.360
1.72000E-03,3.320
1.73000E-03,3.360
1.74000E-03,3.360
1.75000E-03,3.320
1.76000E-03,3.360
1.77000E-03,3.320
1.78000E-03,-0.080
1.79000E-03,-0.080
1.80000E-03,-0.120
1.81000E-03,-0.080
1.82000E-03,-0.080
1.83000E-03,-0.120
1.84000E-03,-0.080
1.85000E-03,-0.120
1.86000E-03,-0.080
1.87000E-03,-0.080
1.88000E-03,3.320
1.89000E-03,3.360
1.90000E-03,3.360
1.91000E-03,3.320
1.92000E-03,3.280
1.93000E-03,3.360
1.94000E-03,3.360
1.95000E-03,3.280
1.96000E-03,3.320
1.97000E-03,3.320
1.98000E-03,3.320
1.99000E-03,3.320
2.00000E-03,3.360
2.01000E-03,3.320
2.02000E-03,3.320
2.03000E-03,3.360
2.04000E-03,3.360
2.05000E-03,3.360
2.06000E-03,3.360
2.07000E-03,3.360
2.08000E-03,3.360
2.09000E-03,-0.080
2.10000E-03,-0.080
2.11000E-03,-0.080
2.12000E-03,-0.160
2.13000E-03,-0.080
2.14000E-03,-0.080
2.15000E-03,-0.080
2.16000E-03,-0.120
2.17000E-03,-0.080
2.18000E-03,-0.120
2.19000E-03,-0.040
2.20000E-03,-0.040
2.21000E-03,-0.120
2.22000E-03,-0.080
2.23000E-03,-0.080
2.24000E-03,-0.080
2.25000E-03,-0.080
2.26000E-03,-0.080
2.27000E-03,-0.120
2.28000E-03,-0.080
2.29000E-03,-0.080
2.30000E-03,3.360
2.31000E-03,3.360
2.32000E-03,3.320
2.33000E-03,3.320
2.34000E-03,3.360
2.35000E-03,3.320
2.36000E-03,3.320
2.37000E-03,3.360
2.38000E-03,3.320
2.39000E-03,3.320
2.40000E-03,3.280
2.41000E-03,3.320
2.42000E-03,3.320
2.43000E-03,3.360
2.44000E-03,3.360
2.45000E-03,3.320
2.46000E-03,3.280
2.47000E-03,3.320
2.48000E-03,3.360
2.49000E-03,3.360
2.50000E-03,-0.040
2.51000E-03,-0.080
2.52000E-03,-0.080
2.53000E-03,-0.080
2.54000E-03,-0.080
2.55000E-03,-0.080
2.56000E-03,-0.040
2.57000E-03,-0.040
2.58000E-03,-0.080
2.59000E-03,-0.080
2.60000E-03,-0.080
2.61000E-03,-0.080
2.62000E-03,-0.080
2.63000E-03,-0.040
2.64000E-03,-0.080
2.65000E-03,-0.120
2.66000E-03,-0.120
2.67000E-03,-0.120
2.68000E-03,-0.160
2.69000E-03,-0.080
2.70000E-03,-0.080
2.71000E-03,-0.120
2.72000E-03,-0.080
2.73000E-03,-0.120
2.74000E-03,-0.080
2.75000E-03,-0.080
2.76000E-03,-0.080
2.77000E-03,-0.080
2.78000E-03,-0.080
2.79000E-03,-0.080
2.80000E-03,-0.080
2.81000E-03,-0.080
2.82000E-03,3.320
2.83000E-03,3.360
2.84000E-03,3.320
2.85000E-03,3.360
2.86000E-03,3.360
2.87000E-03,3.320
2.88000E-03,3.320
2.89000E-03,3.360
2.90000E-03,3.360
2.91000E-03,3.360
2.92000E-03,3.360
2.93000E-03,3.360
2.94000E-03,3.320
2.95000E-03,3.320
2.96000E-03,3.320
2.97000E-03,3.320
2.98000E-03,3.360
2.99000E-03,3.360
3.00000E-03,3.320
3.01000E-03,3.320
3.02000E-03,3.360
3.03000E-03,3.360
3.04000E-03,3.360
3.05000E-03,3.360
3.06000E-03,3.280
3.07000E-03,3.320
3.08000E-03,3.360
3.09000E-03,3.280
3.10000E-03,3.320
3.11000E-03,3.320
3.12000E-03,3.320
3.13000E-03,-0.040
3.14000E-03,-0.040
3.15000E-03,-0.080
3.16000E-03,-0.080
3.17000E-03,-0.080
3.18000E-03,-0.080
3.19000E-03,-0.080
3.20000E-03,-0.080
3.21000E-03,-0.040
3.22000E-03,-0.080
3.23000E-03,-0.080
3.24000E-03,-0.040
3.25000E-03,0.000
3.26000E-03,-0.040
3.27000E-03,-0.080
3.28000E-03,-0.040
3.29000E-03,-0.080
3.30000E-03,-0.080
3.31000E-03,-0.080
3.32000E-03,-0.120
3.33000E-03,-0.080
3.34000E-03,3.360
3.35000E-03,3.360
3.36000E-03,3.360
3.37000E-03,3.360
3.38000E-03,3.320
3.39000E-03,3.320
3.40000E-03,3.320
3.41000E-03,3.360
3.42000E-03,3.360
3.43000E-03,3.360
3.44000E-03,3.360
3.45000E-03,3.360
3.46000E-03,3.360
3.47000E-03,3.360
3.48000E-03,3.320
3.49000E-03,3.320
3.50000E-03,3.320
3.51000E-03,3.320
3.52000E-03,3.360
3.53000E-03,3.360
3.54000E-03,3.360
3.55000E-03,-0.080
3.56000E-03,-0.080
3.57000E-03,-0.040
3.58000E-03,-0.080
3.59000E-03,-0.040
3.60000E-03,-0.120
3.61000E-03,-0.080
3.62000E-03,-0.080
3.63000E-03,-0.040
3.64000E-03,-0.040
3.65000E-03,3.320
3.66000E-03,3.360
3.67000E-03,3.360
3.68000E-03,3.320
3.69000E-03,3.360
3.70000E-03,3.320
3.71000E-03,3.360
3.72000E-03,3.320
3.73000E-03,3.320
3.74000E-03,3.320
3.75000E-03,0.000
3.76000E-03,-0.080
3.77000E-03,-0.080
3.78000E-03,-0.120
3.79000E-03,-0.080
3.80000E-03,-0.080
3.81000E-03,-0.080
3.82000E-03,-0.080
3.83000E-03,-0.120
3.84000E-03,-0.080
3.85000E-03,-0.120
3.86000E-03,3.320
3.87000E-03,3.320
3.88000E-03,3.320
3.89000E-03,3.360
3.90000E-03,3.360
3.91000E-03,3.360
3.92000E-03,3.360
3.93000E-03,3.280
3.94000E-03,3.320
3.95000E-03,3.320
3.96000E-03,3.320
3.97000E-03,3.320
3.98000E-03,3.320
3.99000E-03,3.360
4.00000E-03,3.320
4.01000E-03,3.320
4.02000E-03,3.360
4.03000E-03,3.360
4.04000E-03,3.320
4.05000E-03,3.280
4.06000E-03,3.320
4.07000E-03,3.320
4.08000E-03,3.320
4.09000E-03,3.360
4.10000E-03,3.360
4.11000E-03,3.320
4.12000E-03,3.280
4.13000E-03,3.360
4.14000E-03,3.320
4.15000E-03,3.360
4.16000E-03,3.320
4.17000E-03,-0.080
4.18000E-03,-0.120
4.19000E-03,-0.160
4.20000E-03,-0.120
4.21000E-03,-0.080
4.22000E-03,-0.080
4.23000E-03,-0.080
4.24000E-03,-0.080
4.25000E-03,-0.120
4.26000E-03,-0.080
4.27000E-03,-0.120
4.28000E-03,-0.120
4.29000E-03,-0.120
4.30000E-03,-0.080
4.31000E-03,-0.080
4.32000E-03,-0.080
4.33000E-03,-0.120
4.34000E-03,-0.120
4.35000E-03,-0.080
4.36000E-03,-0.120
4.37000E-03,-0.080
4.38000E-03,3.320
4.39000E-03,3.320
4.40000E-03,3.360
4.41000E-03,3.320
4.42000E-03,3.360
4.43000E-03,3.360
4.44000E-03,3.360
4.45000E-03,3.320
4.46000E-03,3.320
4.47000E-03,3.360
4.48000E-03,3.280
4.49000E-03,3.320
4.50000E-03,3.320
4.51000E-03,3.360
4.52000E-03,3.320
4.53000E-03,3.360
4.54000E-03,3.320
4.55000E-03,3.320
4.56000E-03,3.360
4.57000E-03,3.360
4.58000E-03,3.360
4.59000E-03,-0.040
4.60000E-03,-0.120
4.61000E-03,-0.080
4.62000E-03,-0.080
4.63000E-03,-0.120
4.64000E-03,-0.080
4.65000E-03,-0.080
4.66000E-03,-0.080
4.67000E-03,-0.080
4.68000E-03,-0.080
4.69000E-03,-0.080
4.70000E-03,-0.080
4.71000E-03,-0.120
4.72000E-03,-0.120
4.73000E-03,-0.120
4.74000E-03,-0.080
4.75000E-03,-0.080
4.76000E-03,-0.080
4.77000E-03,-0.080
4.78000E-03,-0.040
4.79000E-03,-0.040
4.80000E-03,3.360
4.81000E-03,3.360
4.82000E-03,3.360
4.83000E-03,3.360
4.84000E-03,3.320
4.85000E-03,3.320
4.86000E-03,3.360
4.87000E-03,3.320
4.88000E-03,3.320
4.89000E-03,3.320
4.90000E-03,3.360
4.91000E-03,3.320
4.92000E-03,3.280
4.93000E-03,3.320
4.94000E-03,3.320
4.95000E-03,3.360
4.96000E-03,3.320
4.97000E-03,3.320
4.98000E-03,3.320
4.99000E-03,3.360
5.00000E-03,3.320
5.01000E-03,3.320
5.02000E-03,3.320
5.03000E-03,3.280
5.04000E-03,3.320
5.05000E-03,3.320
5.06000E-03,3.320
5.07000E-03,3.360
5.08000E-03,3.360
5.09000E-03,3.360
5.10000E-03,3.360
5.11000E-03,3.360
5.12000E-03,3.320
5.13000E-03,3.360
5.14000E-03,3.360
5.15000E-03,3.320
5.16000E-03,3.320
5.17000E-03,3.280
5.18000E-03,3.360
5.19000E-03,3.320
5.20000E-03,3.320
5.21000E-03,-0.080
5.22000E-03,-0.080
5.23000E-03,-0.040
5.24000E-03,-0.080
5.25000E-03,-0.080
5.26000E-03,-0.080
5.27000E-03,-0.080
5.28000E-03,-0.080
5.29000E-03,-0.080
5.30000E-03,-0.080
5.31000E-03,-0.080
5.32000E-03,-0.080
5.33000E-03,-0.120
5.34000E-03,-0.080
5.35000E-03,-0.120
5.36000E-03,-0.080
5.37000E-03,-0.120
5.38000E-03,-0.080
5.39000E-03,-0.160
5.40000E-03,-0.120
5.41000E-03,-0.080
5.42000E-03,3.280
5.43000E-03,3.360
5.44000E-03,3.360
5.45000E-03,3.280
5.46000E-03,3.320
5.47000E-03,3.280
5.48000E-03,3.320
5.49000E-03,3.360
5.50000E-03,3.320
5.51000E-03,3.320
5.52000E-03,3.280
5.53000E-03,3.360
5.54000E-03,3.280
5.55000E-03,3.280
5.56000E-03,3.320
5.57000E-03,3.320
5.58000E-03,3.360
5.59000E-03,3.360
5.60000E-03,3.320
5.61000E-03,3.360
5.62000E-03,3.320
5.63000E-03,-0.080
5.64000E-03,-0.040
5.65000E-03,-0.080
5.66000E-03,-0.080
5.67000E-03,-0.080
5.68000E-03,-0.120
5.69000E-03,-0.080
5.70000E-03,-0.080
5.71000E-03,-0.120
5.72000E-03,-0.040
5.73000E-03,3.280
5.74000E-03,3.360
5.75000E-03,3.320
5.76000E-03,3.320
5.77000E-03,3.280
5.78000E-03,3.280
5.79000E-03,3.360
5.80000E-03,3.280
5.81000E-03,3.240
5.82000E-03,3.320
5.83000E-03,3.360
5.84000E-03,3.360
5.85000E-03,3.360
5.86000E-03,3.360
5.87000E-03,3.320
5.88000E-03,3.320
5.89000E-03,3.360
5.90000E-03,3.360
5.91000E-03,3.360
5.92000E-03,3.320
5.93000E-03,3.360
5.94000E-03,3.360
5.95000E-03,3.360
5.96000E-03,3.320
5.97000E-03,3.280
5.98000E-03,3.360
5.99000E-03,3.320
6.00000E-03,3.320
6.01000E-03,3.280
6.02000E-03,3.360
6.03000E-03,3.360
6.04000E-03,3.360
6.05000E-03,3.320
6.06000E-03,3.280
6.07000E-03,3.320
6.08000E-03,3.320
6.09000E-03,3.360
6.10000E-03,3.320
6.11000E-03,3.320
6.12000E-03,3.360
6.13000E-03,3.320
6.14000E-03,3.320
6.15000E-03,3.280
6.16000E-03,3.320
6.17000E-03,3.320
6.18000E-03,3.320
6.19000E-03,3.280
6.20000E-03,3.360
6.21000E-03,3.320
6.22000E-03,3.320
6.23000E-03,3.320
6.24000E-03,3.320
6.25000E-03,0.000
6.26000E-03,-0.120
6.27000E-03,-0.120
6.28000E-03,-0.120
6.29000E-03,-0.120
6.30000E-03,-0.120
6.31000E-03,-0.080
6.32000E-03,-0.080
6.33000E-03,-0.080
6.34000E-03,-0.080
6.35000E-03,-0.040
6.36000E-03,-0.040
6.37000E-03,-0.040
6.38000E-03,-0.080
6.39000E-03,-0.120
6.40000E-03,-0.080
6.41000E-03,-0.080
6.42000E-03,-0.120
6.43000E-03,-0.080
6.44000E-03,-0.080
6.45000E-03,-0.160
6.46000E-03,3.280
6.47000E-03,3.320
6.48000E-03,3.320
6.49000E-03,3.320
6.50000E-03,3.320
6.51000E-03,3.320
6.52000E-03,3.320
6.53000E-03,3.280
6.54000E-03,3.320
6.55000E-03,3.280
6.56000E-03,3.400
6.57000E-03,3.360
6.58000E-03,3.280
6.59000E-03,3.280
6.60000E-03,3.360
6.61000E-03,3.320
6.62000E-03,3.200
6.63000E-03,3.320
6.64000E-03,3.240
6.65000E-03,3.320
6.66000E-03,3.320
6.67000E-03,0.000
6.68000E-03,-0.040
6.69000E-03,-0.120
6.70000E-03,-0.080
6.71000E-03,-0.160
6.72000E-03,-0.080
6.73000E-03,-0.080
6.74000E-03,-0.040
6.75000E-03,-0.080
6.76000E-03,-0.080
6.77000E-03,-0.120
6.78000E-03,-0.040
6.79000E-03,-0.040
6.80000E-03,-0.120
6.81000E-03,-0.080
6.82000E-03,-0.080
6.83000E-03,-0.120
6.84000E-03,-0.040
6.85000E-03,-0.040
6.86000E-03,-0.080
6.87000E-03,-0.080
6.88000E-03,-0.080
6.89000E-03,-0.120
6.90000E-03,-0.080
6.91000E-03,-0.080
6.92000E-03,-0.120
6.93000E-03,-0.080
6.94000E-03,-0.080
6.95000E-03,-0.120
6.96000E-03,-0.080
6.97000E-03,-0.160
6.98000E-03,-0.120
6.99000E-03,-0.120
7.00000E-03,-0.120
7.01000E-03,-0.080
7.02000E-03,-0.040
7.03000E-03,-0.120
7.04000E-03,-0.080
7.05000E-03,-0.080
7.06000E-03,-0.080
7.07000E-03,-0.080
7.08000E-03,-0.080
7.09000E-03,-0.080
7.10000E-03,-0.080
7.11000E-03,-0.120
7.12000E-03,-0.120
7.13000E-03,-0.040
7.14000E-03,-0.080
7.15000E-03,-0.080
7.16000E-03,-0.120
7.17000E-03,-0.080
7.18000E-03,-0.080
7.19000E-03,-0.080
7.20000E-03,-0.080
7.21000E-03,-0.080
7.22000E-03,-0.080
7.23000E-03,-0.120
7.24000E-03,-0.080
7.25000E-03,-0.080
7.26000E-03,-0.080
7.27000E-03,-0.080
7.28000E-03,-0.080
7.29000E-03,-0.040
7.30000E-03,3.320
7.31000E-03,3.320
7.32000E-03,3.320
7.33000E-03,3.360
7.34000E-03,3.360
7.35000E-03,3.320
7.36000E-03,3.320
7.37000E-03,3.360
7.38000E-03,3.320
7.39000E-03,3.360
7.40000E-03,-0.080
7.41000E-03,-0.080
7.42000E-03,-0.080
7.43000E-03,-0.080
7.44000E-03,-0.080
7.45000E-03,-0.080
7.46000E-03,-0.080
7.47000E-03,-0.120
7.48000E-03,-0.040
7.49000E-03,-0.040
7.50000E-03,3.200
7.51000E-03,3.360
7.52000E-03,3.360
7.53000E-03,3.320
7.54000E-03,3.360
7.55000E-03,3.360
7.56000E-03,3.360
7.57000E-03,3.320
7.58000E-03,3.360
7.59000E-03,3.320
7.60000E-03,3.320
7.61000E-03,3.320
7.62000E-03,3.320
7.63000E-03,3.320
7.64000E-03,3.320
7.65000E-03,3.320
7.66000E-03,3.360
7.67000E-03,3.360
7.68000E-03,3.360
7.69000E-03,3.320
7.70000E-03,3.360
7.71000E-03,0.000
7.72000E-03,-0.080
7.73000E-03,-0.080
7.74000E-03,-0.120
7.75000E-03,-0.040
7.76000E-03,-0.080
7.77000E-03,-0.080
7.78000E-03,-0.120
7.79000E-03,-0.080
7.80000E-03,-0.080
7.81000E-03,-0.040
7.82000E-03,3.360
7.83000E-03,3.320
7.84000E-03,3.320
7.85000E-03,3.360
7.86000E-03,3.320
7.87000E-03,3.320
7.88000E-03,3.320
7.89000E-03,3.360
7.90000E-03,3.280
7.91000E-03,3.320
7.92000E-03,0.000
7.93000E-03,-0.080
7.94000E-03,-0.080
7.95000E-03,-0.080
7.96000E-03,-0.080
7.97000E-03,-0.040
7.98000E-03,-0.080
7.99000E-03,-0.040
8.00000E-03,-0.080
8.01000E-03,-0.080
8.02000E-03,-0.080
8.03000E-03,-0.080
8.04000E-03,-0.080
8.05000E-03,-0.080
8.06000E-03,-0.080
8.07000E-03,-0.080
8.08000E-03,-0.080
8.09000E-03,-0.080
8.10000E-03,-0.080
8.11000E-03,-0.120
8.12000E-03,-0.080
8.13000E-03,-0.080
8.14000E-03,-0.040
8.15000E-03,-0.080
8.16000E-03,-0.080
8.17000E-03,-0.120
8.18000E-03,-0.080
8.19000E-03,-0.080
8.20000E-03,-0.120
8.21000E-03,-0.080
8.22000E-03,-0.080
8.23000E-03,-0.040
8.24000E-03,-0.080
8.25000E-03,-0.080
8.26000E-03,-0.080
8.27000E-03,-0.080
8.28000E-03,-0.080
8.29000E-03,-0.080
8.30000E-03,-0.040
8.31000E-03,0.000
8.32000E-03,-0.040
8.33000E-03,-0.080
8.34000E-03,3.360
8.35000E-03,3.360
8.36000E-03,3.320
8.37000E-03,3.360
8.38000E-03,3.360
8.39000E-03,3.320
8.40000E-03,3.320
8.41000E-03,3.360
8.42000E-03,3.320
8.43000E-03,3.360
8.44000E-03,-0.040
8.45000E-03,-0.040
8.46000E-03,-0.080
8.47000E-03,-0.080
8.48000E-03,-0.120
8.49000E-03,-0.080
8.50000E-03,-0.080
8.51000E-03,-0.040
8.52000E-03,-0.040
8.53000E-03,0.000
8.54000E-03,0.000
8.55000E-03,3.320
8.56000E-03,3.360
8.57000E-03,3.360
8.58000E-03,3.320
8.59000E-03,3.320
8.60000E-03,3.360
8.61000E-03,3.320
8.62000E-03,3.360
8.63000E-03,3.360
8.64000E-03,3.360
8.65000E-03,3.320
8.66000E-03,3.360
8.67000E-03,3.360
8.68000E-03,3.360
8.69000E-03,3.320
8.70000E-03,3.320
8.71000E-03,3.320
8.72000E-03,3.400
8.73000E-03,3.360
8.74000E-03,3.360
8.75000E-03,0.000
8.76000E-03,-0.040
8.77000E-03,-0.040
8.78000E-03,-0.040
8.79000E-03,-0.080
8.80000E-03,-0.080
8.81000E-03,-0.080
8.82000E-03,-0.080
8.83000E-03,-0.080
8.84000E-03,-0.080
8.85000E-03,-0.120
8.86000E-03,-0.080
8.87000E-03,-0.040
8.88000E-03,-0.040
8.89000E-03,-0.080
8.90000E-03,-0.080
8.91000E-03,-0.080
8.92000E-03,-0.080
8.93000E-03,-0.080
8.94000E-03,-0.120
8.95000E-03,-0.080
8.96000E-03,3.320
8.97000E-03,3.360
8.98000E-03,3.320
8.99000E-03,3.320
9.00000E-03,3.320
9.01000E-03,3.360
9.02000E-03,3.360
9.03000E-03,3.360
9.04000E-03,3.360
9.05000E-03,3.360
9.06000E-03,3.320
9.07000E-03,-0.040
9.08000E-03,-0.120
9.09000E-03,-0.080
9.10000E-03,-0.080
9.11000E-03,-0.120
9.12000E-03,-0.080
9.13000E-03,-0.080
9.14000E-03,-0.080
9.15000E-03,-0.040
9.16000E-03,-0.080
9.17000E-03,-0.040
9.18000E-03,-0.040
9.19000E-03,-0.080
9.20000E-03,-0.080
9.21000E-03,-0.080
9.22000E-03,-0.080
9.23000E-03,-0.040
9.24000E-03,-0.080
9.25000E-03,-0.080
9.26000E-03,-0.120
9.27000E-03,-0.080
9.28000E-03,-0.080
9.29000E-03,-0.040
9.30000E-03,-0.040
9.31000E-03,-0.040
9.32000E-03,-0.040
9.33000E-03,-0.080
9.34000E-03,-0.080
9.35000E-03,-0.080
9.36000E-03,-0.080
9.37000E-03,-0.040
9.38000E-03,3.320
9.39000E-03,3.360
9.40000E-03,3.360
9.41000E-03,3.360
9.42000E-03,3.360
9.43000E-03,3.320
9.44000E-03,3.320
9.45000E-03,3.360
9.46000E-03,3.320
9.47000E-03,3.320
9.48000E-03,-0.080
9.49000E-03,-0.120
9.50000E-03,-0.080
9.51000E-03,-0.040
9.52000E-03,-0.040
9.53000E-03,-0.120
9.54000E-03,-0.080
9.55000E-03,-0.080
9.56000E-03,-0.040
9.57000E-03,-0.080
9.58000E-03,-0.080
9.59000E-03,3.320
9.60000E-03,3.400
9.61000E-03,3.320
9.62000E-03,3.400
9.63000E-03,3.320
9.64000E-03,3.360
9.65000E-03,3.320
9.66000E-03,3.320
9.67000E-03,3.360
9.68000E-03,3.320
9.69000E-03,3.360
9.70000E-03,3.360
9.71000E-03,3.320
9.72000E-03,3.320
9.73000E-03,3.320
9.74000E-03,3.320
9.75000E-03,3.400
9.76000E-03,3.360
9.77000E-03,3.360
9.78000E-03,3.320
9.79000E-03,3.320
9.80000E-03,0.000
9.81000E-03,-0.040
9.82000E-03,-0.040
9.83000E-03,-0.040
9.84000E-03,-0.120
9.85000E-03,-0.040
9.86000E-03,-0.080
9.87000E-03,-0.040
9.88000E-03,-0.040
9.89000E-03,-0.080
9.90000E-03,3.320
9.91000E-03,3.320
9.92000E-03,3.360
9.93000E-03,3.360
9.94000E-03,3.320
9.95000E-03,3.360
9.96000E-03,3.360
9.97000E-03,3.360
9.98000E-03,3.280
9.99000E-03,3.360
1.00000E-02,3.320
1.00100E-02,3.360
1.00200E-02,3.320
1.00300E-02,3.320
1.00400E-02,3.360
1.00500E-02,3.360
1.00600E-02,3.360
1.00700E-02,3.360
1.00800E-02,3.320
1.00900E-02,3.320
1.01000E-02,3.360
1.01100E-02,-0.080
1.01200E-02,-0.080
1.01300E-02,-0.080
1.01400E-02,-0.080
1.01500E-02,-0.080
1.01600E-02,-0.080
1.01700E-02,-0.080
1.01800E-02,-0.080
1.01900E-02,-0.120
1.02000E-02,-0.080
1.02100E-02,-0.120
1.02200E-02,-0.040
1.02300E-02,-0.040
1.02400E-02,-0.120
1.02500E-02,-0.120
1.02600E-02,-0.080
1.02700E-02,-0.080
1.02800E-02,0.000
1.02900E-02,-0.080
1.03000E-02,-0.040
1.03100E-02,-0.080
1.03200E-02,-0.040
1.03300E-02,-0.080
1.03400E-02,-0.080
1.03500E-02,-0.040
1.03600E-02,-0.080
1.03700E-02,-0.080
1.03800E-02,-0.080
1.03900E-02,-0.080
1.04000E-02,-0.080
1.04100E-02,-0.080
1.04200E-02,3.360
1.04300E-02,3.320
1.04400E-02,3.360
1.04500E-02,3.360
1.04600E-02,3.320
1.04700E-02,3.360
1.04800E-02,3.360
1.04900E-02,3.320
1.05000E-02,3.320
1.05100E-02,3.360
1.05200E-02,3.320
1.05300E-02,-0.080
1.05400E-02,-0.080
1.05500E-02,-0.080
1.05600E-02,-0.120
1.05700E-02,-0.080
1.05800E-02,-0.080
1.05900E-02,-0.080
1.06000E-02,-0.080
1.06100E-02,-0.080
1.06200E-02,-0.120
1.06300E-02,3.320
1.06400E-02,3.320
1.06500E-02,3.360
1.06600E-02,3.360
1.06700E-02,3.360
1.06800E-02,3.320
1.06900E-02,3.320
1.07000E-02,3.320
1.07100E-02,3.320
1.07200E-02,3.360
1.07300E-02,3.320
1.07400E-02,3.360
1.07500E-02,3.360
1.07600E-02,3.360
1.07700E-02,3.360
1.07800E-02,3.320
